PCBNEW-LibModule-V1  Чт 15 май 2014 13:55:12
# encoding utf-8
Units mm
$INDEX
ARM_JTAG_10x2_H
$EndINDEX
$MODULE ARM_JTAG_10x2_H
Po 0 0 0 15 537472A4 00000000 ~~
Li ARM_JTAG_10x2_H
Sc 0
AR 
Op 0 0 0
T0 0 1.27 1.5 1.5 0 0.15 N V 21 N "ARM_JTAG_10x2_H"
T1 0 -6.35 1.5 1.5 0 0.15 N V 21 N "VAL**"
DS 16.5 -6.5 15.5 -6.5 0.15 21
DS 15.5 -6.5 15.5 0 0.15 21
DS -15.5 0 -15.5 -6.5 0.15 21
DS -15.5 -6.5 -16.5 -6.5 0.15 21
DS 11.176 0 11.176 4.064 0.15 21
DS 11.176 4.064 11.684 4.064 0.15 21
DS 11.684 4.064 11.684 0 0.15 21
DS 8.636 4.064 9.144 4.064 0.15 21
DS 9.144 4.064 9.144 0 0.15 21
DS 8.636 0 8.636 4.064 0.15 21
DS 6.096 0 6.096 4.064 0.15 21
DS 6.096 4.064 6.604 4.064 0.15 21
DS 6.604 4.064 6.604 0 0.15 21
DS 3.556 0 3.556 4.064 0.15 21
DS 3.556 4.064 4.064 4.064 0.15 21
DS 4.064 4.064 4.064 0 0.15 21
DS 1.016 0 1.016 4.064 0.15 21
DS 1.016 4.064 1.524 4.064 0.15 21
DS 1.524 4.064 1.524 0 0.15 21
DS -1.524 0 -1.524 4.064 0.15 21
DS -1.524 4.064 -1.016 4.064 0.15 21
DS -1.016 4.064 -1.016 0 0.15 21
DS -6.604 0 -6.604 4.064 0.15 21
DS -6.604 4.064 -6.096 4.064 0.15 21
DS -6.096 4.064 -6.096 0 0.15 21
DS -6.096 0 -4.064 0 0.15 21
DS -4.064 0 -4.064 4.064 0.15 21
DS -4.064 4.064 -3.556 4.064 0.15 21
DS -3.556 4.064 -3.556 0 0.15 21
DS -9.144 0 -9.144 4.064 0.15 21
DS -9.144 4.064 -8.636 4.064 0.15 21
DS -8.636 4.064 -8.636 0 0.15 21
DS -11.176 0 -11.176 4.064 0.15 21
DS -11.176 4.064 -11.684 4.064 0.15 21
DS -11.684 4.064 -11.684 0 0.15 21
DS -16.5 0 16.5 0 0.15 21
DS 16.5 0 16.5 -9 0.15 21
DS 16.5 -9 -16.5 -9 0.15 21
DS -16.5 -9 -16.5 0 0.15 21
$PAD
Sh "1" R 1.6 4 0 0 0
Dr 0 0 0 O 0 0
At SMD N 00888000
Ne 0 ""
Po -11.43 2.54
$EndPAD
$PAD
Sh "3" R 1.6 4 0 0 0
Dr 0 0 0 O 0 0
At SMD N 00888000
Ne 0 ""
Po -8.89 2.54
$EndPAD
$PAD
Sh "2" R 1.6 4 0 0 0
Dr 0 0 0 O 0 0
At SMD N 00880001
Ne 0 ""
Po -11.43 2.54
$EndPAD
$PAD
Sh "4" R 1.6 4 0 0 0
Dr 0 0 0 O 0 0
At SMD N 00880001
Ne 0 ""
Po -8.89 2.54
$EndPAD
$PAD
Sh "5" R 1.6 4 0 0 0
Dr 0 0 0 O 0 0
At SMD N 00888000
Ne 0 ""
Po -6.35 2.54
$EndPAD
$PAD
Sh "6" R 1.6 4 0 0 0
Dr 0 0 0 O 0 0
At SMD N 00880001
Ne 0 ""
Po -6.35 2.54
$EndPAD
$PAD
Sh "7" R 1.6 4 0 0 0
Dr 0 0 0 O 0 0
At SMD N 00888000
Ne 0 ""
Po -3.81 2.54
$EndPAD
$PAD
Sh "8" R 1.6 4 0 0 0
Dr 0 0 0 O 0 0
At SMD N 00880001
Ne 0 ""
Po -3.81 2.54
$EndPAD
$PAD
Sh "9" R 1.6 4 0 0 0
Dr 0 0 0 O 0 0
At SMD N 00888000
Ne 0 ""
Po -1.27 2.54
$EndPAD
$PAD
Sh "10" R 1.6 4 0 0 0
Dr 0 0 0 O 0 0
At SMD N 00880001
Ne 0 ""
Po -1.27 2.54
$EndPAD
$PAD
Sh "11" R 1.6 4 0 0 0
Dr 0 0 0 O 0 0
At SMD N 00888000
Ne 0 ""
Po 1.27 2.54
$EndPAD
$PAD
Sh "12" R 1.6 4 0 0 0
Dr 0 0 0 O 0 0
At SMD N 00880001
Ne 0 ""
Po 1.27 2.54
$EndPAD
$PAD
Sh "13" R 1.6 4 0 0 0
Dr 0 0 0 O 0 0
At SMD N 00888000
Ne 0 ""
Po 3.81 2.54
$EndPAD
$PAD
Sh "14" R 1.6 4 0 0 0
Dr 0 0 0 O 0 0
At SMD N 00880001
Ne 0 ""
Po 3.81 2.54
$EndPAD
$PAD
Sh "15" R 1.6 4 0 0 0
Dr 0 0 0 O 0 0
At SMD N 00888000
Ne 0 ""
Po 6.35 2.54
$EndPAD
$PAD
Sh "16" R 1.6 4 0 0 0
Dr 0 0 0 O 0 0
At SMD N 00880001
Ne 0 ""
Po 6.35 2.54
$EndPAD
$PAD
Sh "17" R 1.6 4 0 0 0
Dr 0 0 0 O 0 0
At SMD N 00888000
Ne 0 ""
Po 8.89 2.54
$EndPAD
$PAD
Sh "18" R 1.6 4 0 0 0
Dr 0 0 0 O 0 0
At SMD N 00880001
Ne 0 ""
Po 8.89 2.54
$EndPAD
$PAD
Sh "19" R 1.6 4 0 0 0
Dr 0 0 0 O 0 0
At SMD N 00888000
Ne 0 ""
Po 11.43 2.54
$EndPAD
$PAD
Sh "20" R 1.6 4 0 0 0
Dr 0 0 0 O 0 0
At SMD N 00880001
Ne 0 ""
Po 11.43 2.54
$EndPAD
$EndMODULE ARM_JTAG_10x2_H
$EndLIBRARY
