EESchema Schematic File Version 2
LIBS:power
LIBS:device
LIBS:transistors
LIBS:conn
LIBS:linear
LIBS:regul
LIBS:74xx
LIBS:cmos4000
LIBS:adc-dac
LIBS:memory
LIBS:xilinx
LIBS:special
LIBS:microcontrollers
LIBS:dsp
LIBS:microchip
LIBS:analog_switches
LIBS:motorola
LIBS:texas
LIBS:intel
LIBS:audio
LIBS:interface
LIBS:digital-audio
LIBS:philips
LIBS:display
LIBS:cypress
LIBS:siliconi
LIBS:opto
LIBS:atmel
LIBS:contrib
LIBS:valves
LIBS:stm32
LIBS:comm
LIBS:project-cache
EELAYER 24 0
EELAYER END
$Descr A4 11693 8268
encoding utf-8
Sheet 9 10
Title "Charger"
Date "27 nov 2013"
Rev "1"
Comp "Illumium.Org"
Comment1 ""
Comment2 "Kayo"
Comment3 ""
Comment4 ""
$EndDescr
$Comp
L BATTERY BT901
U 1 1 53763CAC
P 7000 3400
AR Path="/5376380A/53763CAC" Ref="BT901"  Part="1" 
AR Path="/53763826/53763CAC" Ref="BT1001"  Part="1" 
F 0 "BT901" H 7000 3600 50  0000 C CNN
F 1 "Li-Ion 3.6V" H 7000 3210 50  0000 C CNN
F 2 "LC18650" H 7000 3400 60  0001 C CNN
F 3 "" H 7000 3400 60  0000 C CNN
	1    7000 3400
	0    -1   1    0   
$EndComp
$Comp
L R R908
U 1 1 53763CBF
P 7000 4350
AR Path="/5376380A/53763CBF" Ref="R908"  Part="1" 
AR Path="/53763826/53763CBF" Ref="R1008"  Part="1" 
F 0 "R908" V 7080 4350 50  0000 C CNN
F 1 "R05" V 7000 4350 50  0000 C CNN
F 2 "SM0805" H 7000 4350 60  0001 C CNN
F 3 "" H 7000 4350 60  0001 C CNN
	1    7000 4350
	-1   0    0    1   
$EndComp
$Comp
L R R907
U 1 1 53763CC5
P 6200 4350
AR Path="/5376380A/53763CC5" Ref="R907"  Part="1" 
AR Path="/53763826/53763CC5" Ref="R1007"  Part="1" 
F 0 "R907" V 6280 4350 50  0000 C CNN
F 1 "33K" V 6200 4350 50  0000 C CNN
F 2 "SM0603" H 6200 4350 60  0001 C CNN
F 3 "" H 6200 4350 60  0001 C CNN
	1    6200 4350
	-1   0    0    1   
$EndComp
$Comp
L LM358 U901
U 1 1 53767C28
P 8600 3900
AR Path="/5376380A/53767C28" Ref="U901"  Part="1" 
AR Path="/53763826/53767C28" Ref="U901"  Part="2" 
F 0 "U901" H 8550 4100 60  0000 L CNN
F 1 "LM358" H 8550 3650 60  0000 L CNN
F 2 "SO8E" H 8600 3900 60  0001 C CNN
F 3 "" H 8600 3900 60  0000 C CNN
	1    8600 3900
	1    0    0    -1  
$EndComp
$Comp
L C C903
U 1 1 53767C41
P 6600 3400
AR Path="/5376380A/53767C41" Ref="C903"  Part="1" 
AR Path="/53763826/53767C41" Ref="C1003"  Part="1" 
F 0 "C903" H 6600 3500 40  0000 L CNN
F 1 "100n" H 6606 3315 40  0000 L CNN
F 2 "SM0603_Capa" H 6638 3250 30  0001 C CNN
F 3 "" H 6600 3400 60  0000 C CNN
	1    6600 3400
	-1   0    0    -1  
$EndComp
$Comp
L R R906
U 1 1 537684BD
P 6200 3450
AR Path="/5376380A/537684BD" Ref="R906"  Part="1" 
AR Path="/53763826/537684BD" Ref="R1006"  Part="1" 
F 0 "R906" V 6280 3450 50  0000 C CNN
F 1 "10K" V 6200 3450 50  0000 C CNN
F 2 "SM0603" H 6200 3450 60  0001 C CNN
F 3 "" H 6200 3450 60  0001 C CNN
	1    6200 3450
	-1   0    0    1   
$EndComp
Text HLabel 6100 4000 0    60   Input ~ 0
SENSE_U
Wire Wire Line
	6200 4600 6200 4700
Wire Wire Line
	7000 3700 7000 4100
Wire Wire Line
	6600 3800 8100 3800
Wire Wire Line
	6600 3800 6600 3600
Connection ~ 7000 3800
Wire Wire Line
	7000 3000 7000 3100
Wire Wire Line
	6100 3000 7000 3000
Wire Wire Line
	6600 3000 6600 3200
Wire Wire Line
	6200 3000 6200 3200
Connection ~ 6600 3000
Wire Wire Line
	6200 4700 9600 4700
Wire Wire Line
	7000 4700 7000 4600
Wire Wire Line
	6200 3700 6200 4100
Wire Wire Line
	6100 4000 6600 4000
Connection ~ 6200 4000
$Comp
L C C904
U 1 1 53769791
P 6600 4400
AR Path="/5376380A/53769791" Ref="C904"  Part="1" 
AR Path="/53763826/53769791" Ref="C1004"  Part="1" 
F 0 "C904" H 6600 4500 40  0000 L CNN
F 1 "100n" H 6606 4315 40  0000 L CNN
F 2 "SM0603_Capa" H 6638 4250 30  0001 C CNN
F 3 "" H 6600 4400 60  0000 C CNN
	1    6600 4400
	-1   0    0    -1  
$EndComp
Wire Wire Line
	6600 4000 6600 4200
Wire Wire Line
	6600 4600 6600 4700
Connection ~ 6600 4700
$Comp
L GND #PWR032
U 1 1 53769D75
P 7400 4800
AR Path="/5376380A/53769D75" Ref="#PWR032"  Part="1" 
AR Path="/53763826/53769D75" Ref="#PWR034"  Part="1" 
F 0 "#PWR032" H 7400 4800 30  0001 C CNN
F 1 "GND" H 7400 4730 30  0001 C CNN
F 2 "" H 7400 4800 60  0000 C CNN
F 3 "" H 7400 4800 60  0000 C CNN
	1    7400 4800
	1    0    0    -1  
$EndComp
$Comp
L R R909
U 1 1 5376A5C4
P 7800 4350
AR Path="/5376380A/5376A5C4" Ref="R909"  Part="1" 
AR Path="/53763826/5376A5C4" Ref="R1009"  Part="1" 
F 0 "R909" V 7880 4350 50  0000 C CNN
F 1 "680" V 7800 4350 50  0000 C CNN
F 2 "SM0603" H 7800 4350 60  0001 C CNN
F 3 "" H 7800 4350 60  0001 C CNN
	1    7800 4350
	-1   0    0    1   
$EndComp
$Comp
L R R910
U 1 1 5376A5CA
P 9200 4250
AR Path="/5376380A/5376A5CA" Ref="R910"  Part="1" 
AR Path="/53763826/5376A5CA" Ref="R1010"  Part="1" 
F 0 "R910" V 9280 4250 50  0000 C CNN
F 1 "22K" V 9200 4250 50  0000 C CNN
F 2 "SM0603" H 9200 4250 60  0001 C CNN
F 3 "" H 9200 4250 60  0001 C CNN
	1    9200 4250
	-1   0    0    -1  
$EndComp
Connection ~ 7000 4700
Wire Wire Line
	7800 4700 7800 4600
Wire Wire Line
	7800 4100 7800 4000
Wire Wire Line
	7800 4000 8100 4000
Wire Wire Line
	9100 3900 9700 3900
Wire Wire Line
	9200 3900 9200 4000
Wire Wire Line
	9200 4500 9200 4600
Wire Wire Line
	9200 4600 8000 4600
Wire Wire Line
	8000 4600 8000 4000
Connection ~ 8000 4000
Wire Wire Line
	8500 4700 8500 4300
Connection ~ 7800 4700
Wire Wire Line
	8500 3300 8500 3500
$Comp
L C C905
U 1 1 5376CF71
P 7400 4400
AR Path="/5376380A/5376CF71" Ref="C905"  Part="1" 
AR Path="/53763826/5376CF71" Ref="C1005"  Part="1" 
F 0 "C905" H 7400 4500 40  0000 L CNN
F 1 "100n" H 7406 4315 40  0000 L CNN
F 2 "SM0603_Capa" H 7438 4250 30  0001 C CNN
F 3 "" H 7400 4400 60  0000 C CNN
	1    7400 4400
	-1   0    0    -1  
$EndComp
Wire Wire Line
	7400 4600 7400 4800
Connection ~ 7400 4700
Wire Wire Line
	7400 4200 7400 3800
Connection ~ 7400 3800
$Comp
L C C906
U 1 1 5376E91D
P 9600 4300
AR Path="/5376380A/5376E91D" Ref="C906"  Part="1" 
AR Path="/53763826/5376E91D" Ref="C1006"  Part="1" 
F 0 "C906" H 9600 4400 40  0000 L CNN
F 1 "100n" H 9606 4215 40  0000 L CNN
F 2 "SM0603_Capa" H 9638 4150 30  0001 C CNN
F 3 "" H 9600 4300 60  0000 C CNN
	1    9600 4300
	-1   0    0    -1  
$EndComp
Wire Wire Line
	9600 4700 9600 4500
Connection ~ 8500 4700
Wire Wire Line
	9600 4100 9600 3400
Wire Wire Line
	9600 3400 8500 3400
Connection ~ 8500 3400
$Comp
L PNP Q903
U 1 1 5376EF1F
P 3300 4300
AR Path="/5376380A/5376EF1F" Ref="Q903"  Part="1" 
AR Path="/53763826/5376EF1F" Ref="Q1003"  Part="1" 
F 0 "Q903" H 3300 4150 60  0000 R CNN
F 1 "2N3906" H 3300 4450 60  0000 R CNN
F 2 "SOT23EBC" H 3300 4300 60  0001 C CNN
F 3 "" H 3300 4300 60  0000 C CNN
	1    3300 4300
	1    0    0    1   
$EndComp
$Comp
L NPN Q902
U 1 1 5376EF2E
P 3300 3700
AR Path="/5376380A/5376EF2E" Ref="Q902"  Part="1" 
AR Path="/53763826/5376EF2E" Ref="Q1002"  Part="1" 
F 0 "Q902" H 3300 3550 50  0000 R CNN
F 1 "2N3904" H 3300 3850 50  0000 R CNN
F 2 "SOT23EBC" H 3300 3700 60  0001 C CNN
F 3 "" H 3300 3700 60  0000 C CNN
	1    3300 3700
	1    0    0    -1  
$EndComp
$Comp
L NPN Q901
U 1 1 5376EF3B
P 2700 4000
AR Path="/5376380A/5376EF3B" Ref="Q901"  Part="1" 
AR Path="/53763826/5376EF3B" Ref="Q1001"  Part="1" 
F 0 "Q901" H 2700 3850 50  0000 R CNN
F 1 "2N3904" H 2700 4150 50  0000 R CNN
F 2 "SOT23EBC" H 2700 4000 60  0001 C CNN
F 3 "" H 2700 4000 60  0000 C CNN
	1    2700 4000
	1    0    0    -1  
$EndComp
$Comp
L MOSFET_P Q904
U 1 1 5376EF52
P 3700 3100
AR Path="/5376380A/5376EF52" Ref="Q904"  Part="1" 
AR Path="/53763826/5376EF52" Ref="Q1004"  Part="1" 
F 0 "Q904" H 3700 3290 60  0000 R CNN
F 1 "SI2307" H 3700 2920 60  0000 R CNN
F 2 "SOT23GDS" H 3700 3100 60  0001 C CNN
F 3 "" H 3700 3100 60  0000 C CNN
	1    3700 3100
	0    1    -1   0   
$EndComp
$Comp
L INDUCTOR_SMALL L901
U 1 1 5377185D
P 4350 3000
AR Path="/5376380A/5377185D" Ref="L901"  Part="1" 
AR Path="/53763826/5377185D" Ref="L1001"  Part="1" 
F 0 "L901" H 4350 3100 50  0000 C CNN
F 1 "470u" H 4350 2950 50  0000 C CNN
F 2 "TOR_L_10X5_V" H 4350 3000 60  0001 C CNN
F 3 "" H 4350 3000 60  0000 C CNN
	1    4350 3000
	1    0    0    -1  
$EndComp
$Comp
L DIODESCH D901
U 1 1 5377186C
P 4000 3400
AR Path="/5376380A/5377186C" Ref="D901"  Part="1" 
AR Path="/53763826/5377186C" Ref="D1001"  Part="1" 
F 0 "D901" H 4000 3500 40  0000 C CNN
F 1 "SS14" H 4000 3300 40  0000 C CNN
F 2 "SM1206" H 4000 3400 60  0001 C CNN
F 3 "" H 4000 3400 60  0000 C CNN
	1    4000 3400
	0    -1   -1   0   
$EndComp
$Comp
L DIODESCH D902
U 1 1 537721EA
P 5900 3000
AR Path="/5376380A/537721EA" Ref="D902"  Part="1" 
AR Path="/53763826/537721EA" Ref="D1002"  Part="1" 
F 0 "D902" H 5900 3100 40  0000 C CNN
F 1 "SS14" H 5900 2900 40  0000 C CNN
F 2 "SM1206" H 5900 3000 60  0001 C CNN
F 3 "" H 5900 3000 60  0000 C CNN
	1    5900 3000
	1    0    0    -1  
$EndComp
$Comp
L C C902
U 1 1 53772B7A
P 5100 3400
AR Path="/5376380A/53772B7A" Ref="C902"  Part="1" 
AR Path="/53763826/53772B7A" Ref="C1002"  Part="1" 
F 0 "C902" H 5100 3500 40  0000 L CNN
F 1 "100n" H 5106 3315 40  0000 L CNN
F 2 "SM0603_Capa" H 5138 3250 30  0001 C CNN
F 3 "" H 5100 3400 60  0000 C CNN
	1    5100 3400
	-1   0    0    -1  
$EndComp
$Comp
L R R905
U 1 1 53772B80
P 5500 3350
AR Path="/5376380A/53772B80" Ref="R905"  Part="1" 
AR Path="/53763826/53772B80" Ref="R1005"  Part="1" 
F 0 "R905" V 5580 3350 50  0000 C CNN
F 1 "4K7" V 5500 3350 50  0000 C CNN
F 2 "SM0603" H 5500 3350 60  0001 C CNN
F 3 "" H 5500 3350 60  0001 C CNN
	1    5500 3350
	-1   0    0    1   
$EndComp
$Comp
L R R904
U 1 1 53772ECB
P 3700 3650
AR Path="/5376380A/53772ECB" Ref="R904"  Part="1" 
AR Path="/53763826/53772ECB" Ref="R1004"  Part="1" 
F 0 "R904" V 3780 3650 50  0000 C CNN
F 1 "120" V 3700 3650 50  0000 C CNN
F 2 "SM0603" H 3700 3650 60  0001 C CNN
F 3 "" H 3700 3650 60  0001 C CNN
	1    3700 3650
	-1   0    0    1   
$EndComp
Connection ~ 6200 3000
Wire Wire Line
	4600 3000 5700 3000
Wire Wire Line
	5500 3000 5500 3100
Wire Wire Line
	5500 3700 5500 3600
Wire Wire Line
	4000 3700 5500 3700
Wire Wire Line
	5100 3700 5100 3600
Wire Wire Line
	4700 3700 4700 3600
Connection ~ 5100 3700
Wire Wire Line
	5100 3000 5100 3200
Connection ~ 5500 3000
Wire Wire Line
	4700 3000 4700 3200
Connection ~ 5100 3000
Connection ~ 4700 3000
Wire Wire Line
	3900 3000 4100 3000
Wire Wire Line
	4000 3000 4000 3200
Wire Wire Line
	4000 3700 4000 3600
Connection ~ 4700 3700
Connection ~ 4000 3000
Wire Wire Line
	3700 3400 3700 3300
Wire Wire Line
	2600 3000 3500 3000
Wire Wire Line
	3400 3000 3400 3500
Wire Wire Line
	3700 3900 3700 4000
Wire Wire Line
	3700 4000 3400 4000
Wire Wire Line
	3400 3900 3400 4100
Connection ~ 3400 4000
Wire Wire Line
	3100 4300 3000 4300
Wire Wire Line
	3000 4300 3000 3700
Wire Wire Line
	2800 3700 3100 3700
Wire Wire Line
	2800 3600 2800 3800
Connection ~ 3000 3700
$Comp
L R R903
U 1 1 53777DC9
P 2800 4550
AR Path="/5376380A/53777DC9" Ref="R903"  Part="1" 
AR Path="/53763826/53777DC9" Ref="R1003"  Part="1" 
F 0 "R903" V 2880 4550 50  0000 C CNN
F 1 "330" V 2800 4550 50  0000 C CNN
F 2 "SM0603" H 2800 4550 60  0001 C CNN
F 3 "" H 2800 4550 60  0001 C CNN
	1    2800 4550
	-1   0    0    1   
$EndComp
$Comp
L R R902
U 1 1 53777DCF
P 2800 3350
AR Path="/5376380A/53777DCF" Ref="R902"  Part="1" 
AR Path="/53763826/53777DCF" Ref="R1002"  Part="1" 
F 0 "R902" V 2880 3350 50  0000 C CNN
F 1 "4K3" V 2800 3350 50  0000 C CNN
F 2 "SM0603" H 2800 3350 60  0001 C CNN
F 3 "" H 2800 3350 60  0001 C CNN
	1    2800 3350
	-1   0    0    1   
$EndComp
Wire Wire Line
	2800 3000 2800 3100
Connection ~ 3400 3000
Connection ~ 2800 3700
Wire Wire Line
	2800 4200 2800 4300
Wire Wire Line
	2800 4800 2800 4900
Wire Wire Line
	2800 4900 3400 4900
Wire Wire Line
	3400 4900 3400 4500
Wire Wire Line
	2500 4000 2400 4000
$Comp
L R R901
U 1 1 5377982F
P 2150 4000
AR Path="/5376380A/5377982F" Ref="R901"  Part="1" 
AR Path="/53763826/5377982F" Ref="R1001"  Part="1" 
F 0 "R901" V 2230 4000 50  0000 C CNN
F 1 "4K3" V 2150 4000 50  0000 C CNN
F 2 "SM0603" H 2150 4000 60  0001 C CNN
F 3 "" H 2150 4000 60  0001 C CNN
	1    2150 4000
	0    -1   -1   0   
$EndComp
Wire Wire Line
	1900 4000 1800 4000
Text HLabel 1800 4000 0    60   Input ~ 0
PWM_CTL
$Comp
L VDD #PWR033
U 1 1 5377AF83
P 8500 3300
AR Path="/5376380A/5377AF83" Ref="#PWR033"  Part="1" 
AR Path="/53763826/5377AF83" Ref="#PWR035"  Part="1" 
F 0 "#PWR033" H 8500 3400 30  0001 C CNN
F 1 "VDD" H 8500 3410 30  0000 C CNN
F 2 "" H 8500 3300 60  0000 C CNN
F 3 "" H 8500 3300 60  0000 C CNN
	1    8500 3300
	1    0    0    -1  
$EndComp
Text HLabel 9700 3900 2    60   Input ~ 0
SENSE_I
Connection ~ 9200 3900
Text Notes 6200 5100 0    60   ~ 0
Q[SENSE]: U[SENSE]=I[SENSE]*R[SENSE]*K[AMP], K[AMP]=(1+R[UP]/R[DOWN]);\nQ[AMP]: solve(Q[SENSE], R[UP]);\n\nI[SENSE]: 1.9/*[A]*/;\nR[SENSE]: 0.05/*[Ohm]*/;\nR[DOWN]: 6.8e2/*[Ohm]*/;\n\n''Q[AMP], U[SENSE]=3.2/*[V]*/;\n''Q[SENSE], R[UP]=22e3/*[Ohm]*/;
$Comp
L CP1 C901
U 1 1 5378ED0F
P 4700 3400
AR Path="/5376380A/5378ED0F" Ref="C901"  Part="1" 
AR Path="/53763826/5378ED0F" Ref="C1001"  Part="1" 
F 0 "C901" H 4750 3500 50  0000 L CNN
F 1 "1000u×6.3V" H 4750 3300 50  0000 L CNN
F 2 "C1.5V8V" H 4700 3400 60  0001 C CNN
F 3 "" H 4700 3400 60  0000 C CNN
	1    4700 3400
	-1   0    0    -1  
$EndComp
Text GLabel 2600 3000 0    60   Input ~ 0
CHG_PWR
Connection ~ 2800 3000
$EndSCHEMATC
