EESchema Schematic File Version 2
LIBS:power
LIBS:device
LIBS:transistors
LIBS:conn
LIBS:linear
LIBS:regul
LIBS:74xx
LIBS:cmos4000
LIBS:adc-dac
LIBS:memory
LIBS:xilinx
LIBS:special
LIBS:microcontrollers
LIBS:dsp
LIBS:microchip
LIBS:analog_switches
LIBS:motorola
LIBS:texas
LIBS:intel
LIBS:audio
LIBS:interface
LIBS:digital-audio
LIBS:philips
LIBS:display
LIBS:cypress
LIBS:siliconi
LIBS:opto
LIBS:atmel
LIBS:contrib
LIBS:valves
LIBS:stm32
LIBS:comm
LIBS:project-cache
EELAYER 24 0
EELAYER END
$Descr A4 11693 8268
encoding utf-8
Sheet 3 10
Title "Charger"
Date "27 nov 2013"
Rev "1"
Comp "Illumium.Org"
Comment1 ""
Comment2 "Kayo"
Comment3 ""
Comment4 ""
$EndDescr
$Comp
L ARM-JTAG J301
U 1 1 5366B830
P 6150 3800
F 0 "J301" H 6150 4450 60  0000 C CNN
F 1 "ARM-JTAG" H 6150 3250 60  0000 C CNN
F 2 "ARM_JTAG_10x2_H" H 6150 3800 60  0001 C CNN
F 3 "" H 6150 3800 60  0001 C CNN
	1    6150 3800
	1    0    0    -1  
$EndComp
$Comp
L GND #PWR013
U 1 1 5366B83A
P 5300 5000
F 0 "#PWR013" H 5300 5000 30  0001 C CNN
F 1 "GND" H 5300 4930 30  0001 C CNN
F 2 "" H 5300 5000 60  0001 C CNN
F 3 "" H 5300 5000 60  0001 C CNN
	1    5300 5000
	1    0    0    -1  
$EndComp
$Comp
L R R301
U 1 1 5366B840
P 5100 4550
F 0 "R301" V 5180 4550 50  0000 C CNN
F 1 "10K" V 5100 4550 50  0000 C CNN
F 2 "SM0603" H 5100 4550 60  0001 C CNN
F 3 "" H 5100 4550 60  0001 C CNN
	1    5100 4550
	-1   0    0    1   
$EndComp
$Comp
L R R302
U 1 1 5366B846
P 5300 4550
F 0 "R302" V 5380 4550 50  0000 C CNN
F 1 "10K" V 5300 4550 50  0000 C CNN
F 2 "SM0603" H 5300 4550 60  0001 C CNN
F 3 "" H 5300 4550 60  0001 C CNN
	1    5300 4550
	-1   0    0    1   
$EndComp
$Comp
L R R303
U 1 1 5366B84C
P 5500 4550
F 0 "R303" V 5580 4550 50  0000 C CNN
F 1 "10K" V 5500 4550 50  0000 C CNN
F 2 "SM0603" H 5500 4550 60  0001 C CNN
F 3 "" H 5500 4550 60  0001 C CNN
	1    5500 4550
	-1   0    0    1   
$EndComp
$Comp
L GND #PWR014
U 1 1 5366B852
P 6800 4300
F 0 "#PWR014" H 6800 4300 30  0001 C CNN
F 1 "GND" H 6800 4230 30  0001 C CNN
F 2 "" H 6800 4300 60  0001 C CNN
F 3 "" H 6800 4300 60  0001 C CNN
	1    6800 4300
	1    0    0    -1  
$EndComp
$Comp
L VDD #PWR015
U 1 1 5366B858
P 6800 2900
F 0 "#PWR015" H 6800 3000 30  0001 C CNN
F 1 "VDD" H 6800 3010 30  0000 C CNN
F 2 "" H 6800 2900 60  0001 C CNN
F 3 "" H 6800 2900 60  0001 C CNN
	1    6800 2900
	1    0    0    -1  
$EndComp
Wire Wire Line
	5500 4300 5500 4200
Wire Wire Line
	4900 4000 5600 4000
Wire Wire Line
	4900 3900 5600 3900
Wire Wire Line
	5100 3800 5600 3800
Wire Wire Line
	5600 3700 4900 3700
Wire Wire Line
	5600 3600 4900 3600
Wire Wire Line
	4900 3500 5600 3500
Wire Wire Line
	5500 4200 5600 4200
Wire Wire Line
	4900 3400 5600 3400
Connection ~ 6800 3600
Wire Wire Line
	6700 3600 7000 3600
Connection ~ 6800 3800
Wire Wire Line
	6800 3800 6700 3800
Connection ~ 6800 4000
Wire Wire Line
	6800 4000 6700 4000
Connection ~ 6800 4200
Wire Wire Line
	6800 4200 6700 4200
Connection ~ 6800 3000
Wire Wire Line
	6800 2900 6800 3300
Wire Wire Line
	5500 3300 5600 3300
Wire Wire Line
	5500 3000 5500 3300
Wire Wire Line
	5500 3000 7000 3000
Wire Wire Line
	6800 3300 6700 3300
Wire Wire Line
	6800 3400 6700 3400
Wire Wire Line
	6800 3400 6800 4300
Wire Wire Line
	6800 4100 6700 4100
Connection ~ 6800 4100
Wire Wire Line
	6800 3900 6700 3900
Connection ~ 6800 3900
Wire Wire Line
	6800 3700 6700 3700
Connection ~ 6800 3700
Wire Wire Line
	6800 3500 6700 3500
Connection ~ 6800 3500
Wire Wire Line
	5300 4100 5600 4100
Text GLabel 4900 3400 0    60   Input ~ 0
JTAG_TRST
Text GLabel 4900 3500 0    60   Input ~ 0
JTAG_TDI
Text GLabel 4900 3600 0    60   Input ~ 0
JTAG_TMS
Text GLabel 4900 3700 0    60   Input ~ 0
JTAG_TCK
Text GLabel 4900 3900 0    60   Input ~ 0
JTAG_TDO
Text GLabel 4900 4000 0    60   Input ~ 0
RESET
$Comp
L C C301
U 1 1 53747B1B
P 7000 3300
F 0 "C301" H 7000 3400 40  0000 L CNN
F 1 "100n" H 7006 3215 40  0000 L CNN
F 2 "SM0603_Capa" H 7038 3150 30  0001 C CNN
F 3 "" H 7000 3300 60  0000 C CNN
	1    7000 3300
	-1   0    0    -1  
$EndComp
Wire Wire Line
	7000 3000 7000 3100
Wire Wire Line
	7000 3600 7000 3500
Wire Wire Line
	5300 4100 5300 4300
Wire Wire Line
	5100 3800 5100 4300
Wire Wire Line
	5100 4800 5100 4900
Wire Wire Line
	5100 4900 5500 4900
Wire Wire Line
	5500 4900 5500 4800
Wire Wire Line
	5300 4800 5300 5000
Connection ~ 5300 4900
$EndSCHEMATC
