PCBNEW-LibModule-V1  Чт 15 май 2014 13:22:48
# encoding utf-8
Units mm
$INDEX
TOR_L_10X5_V
$EndINDEX
$MODULE TOR_L_10X5_V
Po 0 0 0 15 53746B18 00000000 ~~
Li TOR_L_10X5_V
Sc 0
AR 
Op 0 0 0
T0 0 1 1.5 1.5 0 0.15 N V 21 N "TOR_L"
T1 0 -1 1.5 1.5 0 0.15 N V 21 N "VAL**"
DS -5 -2.5 5 -2.5 0.15 21
DS 5 -2.5 5 2.5 0.15 21
DS 5 2.5 -5 2.5 0.15 21
DS -5 2.5 -5 -2.5 0.15 21
$PAD
Sh "1" C 2 2 0 0 0
Dr 0.8128 0 0
At STD N 00E0FFFF
Ne 0 ""
Po 0 -3
$EndPAD
$PAD
Sh "2" C 2 2 0 0 0
Dr 0.8128 0 0
At STD N 00E0FFFF
Ne 0 ""
Po 0 3
$EndPAD
$EndMODULE TOR_L_10X5_V
$EndLIBRARY
