PCBNEW-LibModule-V1  Вс 27 апр 2014 02:14:29
# encoding utf-8
Units mm
$INDEX
LC18650
$EndINDEX
$MODULE LC18650
Po 0 0 0 15 535C13A1 00000000 ~~
Li LC18650
Sc 0
AR 
Op 0 0 0
T0 0 2.54 1.5 1.5 0 0.15 N V 21 N "LC18650"
T1 -0.635 -2.54 1.5 1.5 0 0.15 N V 21 N "VAL**"
DS 9.525 0 9.525 35.56 0.15 21
DS 9.525 35.56 -9.525 35.56 0.15 21
DS 9.525 0 9.525 -35.56 0.15 21
DS 9.525 -35.56 -9.525 -35.56 0.15 21
DS -9.525 -35.56 -9.525 35.56 0.15 21
$PAD
Sh "1" O 6.8 2.4 0 0 0
Dr 0.86 0 0
At STD N 00E0FFFF
Ne 0 ""
Po 0 -37.465
$EndPAD
$PAD
Sh "2" O 6.8 2.4 0 0 0
Dr 0.86 0 0
At STD N 00E0FFFF
Ne 0 ""
Po 0 37.465
$EndPAD
$EndMODULE LC18650
$EndLIBRARY
