EESchema Schematic File Version 2
LIBS:power
LIBS:device
LIBS:transistors
LIBS:conn
LIBS:linear
LIBS:regul
LIBS:74xx
LIBS:cmos4000
LIBS:adc-dac
LIBS:memory
LIBS:xilinx
LIBS:special
LIBS:microcontrollers
LIBS:dsp
LIBS:microchip
LIBS:analog_switches
LIBS:motorola
LIBS:texas
LIBS:intel
LIBS:audio
LIBS:interface
LIBS:digital-audio
LIBS:philips
LIBS:display
LIBS:cypress
LIBS:siliconi
LIBS:opto
LIBS:atmel
LIBS:contrib
LIBS:valves
LIBS:stm32
LIBS:comm
LIBS:project-cache
EELAYER 24 0
EELAYER END
$Descr A4 11693 8268
encoding utf-8
Sheet 4 10
Title "Charger"
Date "27 nov 2013"
Rev "1"
Comp "Illumium.Org"
Comment1 ""
Comment2 "Kayo"
Comment3 ""
Comment4 ""
$EndDescr
$Comp
L LED D403
U 1 1 536A348C
P 5200 2400
AR Path="/537443FD/536A348C" Ref="D403"  Part="1" 
AR Path="/5375BA25/536A348C" Ref="D503"  Part="1" 
AR Path="/5375BA47/536A348C" Ref="D603"  Part="1" 
AR Path="/5375B9EC/536A348C" Ref="D703"  Part="1" 
F 0 "D503" H 5200 2500 50  0000 C CNN
F 1 "led_a" H 5200 2300 50  0000 C CNN
F 2 "LED-0603" H 5200 2400 60  0001 C CNN
F 3 "" H 5200 2400 60  0000 C CNN
	1    5200 2400
	-1   0    0    -1  
$EndComp
$Comp
L LED D401
U 1 1 536A34AE
P 4700 2700
AR Path="/537443FD/536A34AE" Ref="D401"  Part="1" 
AR Path="/5375BA25/536A34AE" Ref="D501"  Part="1" 
AR Path="/5375BA47/536A34AE" Ref="D601"  Part="1" 
AR Path="/5375B9EC/536A34AE" Ref="D701"  Part="1" 
F 0 "D501" H 4700 2800 50  0000 C CNN
F 1 "led_f" H 4700 2600 50  0000 C CNN
F 2 "LED-0603" H 4700 2700 60  0001 C CNN
F 3 "" H 4700 2700 60  0000 C CNN
	1    4700 2700
	0    -1   1    0   
$EndComp
$Comp
L LED D406
U 1 1 536A351F
P 5700 2700
AR Path="/537443FD/536A351F" Ref="D406"  Part="1" 
AR Path="/5375BA25/536A351F" Ref="D506"  Part="1" 
AR Path="/5375BA47/536A351F" Ref="D606"  Part="1" 
AR Path="/5375B9EC/536A351F" Ref="D706"  Part="1" 
F 0 "D506" H 5700 2800 50  0000 C CNN
F 1 "led_b" H 5700 2600 50  0000 C CNN
F 2 "LED-0603" H 5700 2700 60  0001 C CNN
F 3 "" H 5700 2700 60  0000 C CNN
	1    5700 2700
	0    -1   1    0   
$EndComp
$Comp
L LED D407
U 1 1 536A3525
P 5700 3700
AR Path="/537443FD/536A3525" Ref="D407"  Part="1" 
AR Path="/5375BA25/536A3525" Ref="D507"  Part="1" 
AR Path="/5375BA47/536A3525" Ref="D607"  Part="1" 
AR Path="/5375B9EC/536A3525" Ref="D707"  Part="1" 
F 0 "D507" H 5700 3800 50  0000 C CNN
F 1 "led_c" H 5700 3600 50  0000 C CNN
F 2 "LED-0603" H 5700 3700 60  0001 C CNN
F 3 "" H 5700 3700 60  0000 C CNN
	1    5700 3700
	0    -1   -1   0   
$EndComp
$Comp
L LED D404
U 1 1 536A352B
P 5200 3200
AR Path="/537443FD/536A352B" Ref="D404"  Part="1" 
AR Path="/5375BA25/536A352B" Ref="D504"  Part="1" 
AR Path="/5375BA47/536A352B" Ref="D604"  Part="1" 
AR Path="/5375B9EC/536A352B" Ref="D704"  Part="1" 
F 0 "D504" H 5200 3300 50  0000 C CNN
F 1 "led_g" H 5200 3100 50  0000 C CNN
F 2 "LED-0603" H 5200 3200 60  0001 C CNN
F 3 "" H 5200 3200 60  0000 C CNN
	1    5200 3200
	1    0    0    -1  
$EndComp
$Comp
L LED D402
U 1 1 536A354F
P 4700 3700
AR Path="/537443FD/536A354F" Ref="D402"  Part="1" 
AR Path="/5375BA25/536A354F" Ref="D502"  Part="1" 
AR Path="/5375BA47/536A354F" Ref="D602"  Part="1" 
AR Path="/5375B9EC/536A354F" Ref="D702"  Part="1" 
F 0 "D502" H 4700 3800 50  0000 C CNN
F 1 "led_e" H 4700 3600 50  0000 C CNN
F 2 "LED-0603" H 4700 3700 60  0001 C CNN
F 3 "" H 4700 3700 60  0000 C CNN
	1    4700 3700
	0    -1   -1   0   
$EndComp
$Comp
L LED D405
U 1 1 536A355A
P 5200 4000
AR Path="/537443FD/536A355A" Ref="D405"  Part="1" 
AR Path="/5375BA25/536A355A" Ref="D505"  Part="1" 
AR Path="/5375BA47/536A355A" Ref="D605"  Part="1" 
AR Path="/5375B9EC/536A355A" Ref="D705"  Part="1" 
F 0 "D505" H 5200 4100 50  0000 C CNN
F 1 "led_d" H 5200 3900 50  0000 C CNN
F 2 "LED-0603" H 5200 4000 60  0001 C CNN
F 3 "" H 5200 4000 60  0000 C CNN
	1    5200 4000
	1    0    0    -1  
$EndComp
$Comp
L LED D408
U 1 1 536A363B
P 5900 4000
AR Path="/537443FD/536A363B" Ref="D408"  Part="1" 
AR Path="/5375BA25/536A363B" Ref="D508"  Part="1" 
AR Path="/5375BA47/536A363B" Ref="D608"  Part="1" 
AR Path="/5375B9EC/536A363B" Ref="D708"  Part="1" 
F 0 "D508" H 5900 4100 50  0000 C CNN
F 1 "led_p" H 5900 3900 50  0000 C CNN
F 2 "LED-0603" H 5900 4000 60  0001 C CNN
F 3 "" H 5900 4000 60  0000 C CNN
	1    5900 4000
	0    -1   -1   0   
$EndComp
Wire Wire Line
	5700 2900 5700 3500
Wire Wire Line
	5400 3200 5700 3200
Connection ~ 5700 3200
Wire Wire Line
	4700 2900 4700 3000
Wire Wire Line
	4700 3000 5700 3000
Connection ~ 5700 3000
Wire Wire Line
	5000 2400 4900 2400
Wire Wire Line
	4900 2400 4900 3000
Connection ~ 4900 3000
Wire Wire Line
	4700 3500 4700 3400
Wire Wire Line
	4400 3400 5900 3400
Connection ~ 5700 3400
Connection ~ 5500 3400
Wire Wire Line
	5900 3400 5900 3800
Wire Wire Line
	5900 4200 5900 4300
Wire Wire Line
	5700 3900 5700 4000
Wire Wire Line
	5000 4000 4800 4000
Wire Wire Line
	4800 4000 4800 4900
Wire Wire Line
	4700 3900 4700 4000
Wire Wire Line
	4700 2500 4700 2400
Wire Wire Line
	5600 2400 5400 2400
Wire Wire Line
	5600 1800 5600 2400
Wire Wire Line
	4400 3400 4400 3500
Wire Wire Line
	5800 2400 5700 2400
Wire Wire Line
	5800 1800 5800 2400
Wire Wire Line
	5700 2400 5700 2500
Wire Wire Line
	4700 2400 4800 2400
Wire Wire Line
	5700 4000 5600 4000
Wire Wire Line
	5600 4000 5600 4900
Wire Wire Line
	5900 4300 5800 4300
Wire Wire Line
	5800 4300 5800 4900
Wire Wire Line
	4700 4000 4600 4000
Wire Wire Line
	4600 4000 4600 4900
$Comp
L NPN Q401
U 1 1 536A46B0
P 4300 3700
AR Path="/537443FD/536A46B0" Ref="Q401"  Part="1" 
AR Path="/5375BA25/536A46B0" Ref="Q501"  Part="1" 
AR Path="/5375BA47/536A46B0" Ref="Q601"  Part="1" 
AR Path="/5375B9EC/536A46B0" Ref="Q701"  Part="1" 
F 0 "Q501" H 4300 3550 50  0000 R CNN
F 1 "NPN" H 4300 3850 50  0000 R CNN
F 2 "SOT23EBC" H 4300 3700 60  0001 C CNN
F 3 "" H 4300 3700 60  0000 C CNN
	1    4300 3700
	1    0    0    -1  
$EndComp
$Comp
L GND #PWR016
U 1 1 536A39F5
P 4400 4000
AR Path="/537443FD/536A39F5" Ref="#PWR016"  Part="1" 
AR Path="/5375BA25/536A39F5" Ref="#PWR017"  Part="1" 
AR Path="/5375BA47/536A39F5" Ref="#PWR018"  Part="1" 
AR Path="/5375B9EC/536A39F5" Ref="#PWR019"  Part="1" 
F 0 "#PWR019" H 4400 4000 30  0001 C CNN
F 1 "GND" H 4400 3930 30  0001 C CNN
F 2 "" H 4400 4000 60  0000 C CNN
F 3 "" H 4400 4000 60  0000 C CNN
	1    4400 4000
	1    0    0    -1  
$EndComp
Wire Wire Line
	4400 4000 4400 3900
$Comp
L R R401
U 1 1 536A49BC
P 4000 4050
AR Path="/537443FD/536A49BC" Ref="R401"  Part="1" 
AR Path="/5375BA25/536A49BC" Ref="R501"  Part="1" 
AR Path="/5375BA47/536A49BC" Ref="R601"  Part="1" 
AR Path="/5375B9EC/536A49BC" Ref="R701"  Part="1" 
F 0 "R501" V 4080 4050 40  0000 C CNN
F 1 "4K7" V 4007 4051 40  0000 C CNN
F 2 "SM0603" V 3930 4050 30  0001 C CNN
F 3 "" H 4000 4050 30  0000 C CNN
	1    4000 4050
	-1   0    0    1   
$EndComp
Wire Wire Line
	5400 4000 5500 4000
Wire Wire Line
	5500 4000 5500 3400
Connection ~ 4700 3400
Wire Wire Line
	4100 3700 4000 3700
Wire Wire Line
	4000 3700 4000 3800
Wire Wire Line
	4000 4300 4000 4400
Text GLabel 4600 1800 1    60   Input ~ 0
L7S_G
Text GLabel 4800 1800 1    60   Input ~ 0
L7S_F
Text GLabel 5600 1800 1    60   Input ~ 0
L7S_A
Text GLabel 5800 1800 1    60   Input ~ 0
L7S_B
Wire Wire Line
	4800 2400 4800 1800
Wire Wire Line
	4600 2400 4600 1800
Wire Wire Line
	4500 2400 4600 2400
Wire Wire Line
	4500 3200 5000 3200
Wire Wire Line
	4500 2400 4500 3200
Text GLabel 4600 4900 3    60   Input ~ 0
L7S_E
Text GLabel 4800 4900 3    60   Input ~ 0
L7S_D
Text GLabel 5600 4900 3    60   Input ~ 0
L7S_C
Text GLabel 5800 4900 3    60   Input ~ 0
L7S_P
Text HLabel 4000 4400 3    60   Input ~ 0
SEG
$EndSCHEMATC
