PCBNEW-LibModule-V1  Пт 22 ноя 2013 18:39:54
# encoding utf-8
$INDEX
MINIUSB_5PIN
$EndINDEX
$MODULE MINIUSB_5PIN
Po 0 0 0 15 528F5094 00000000 ~~
Li MINIUSB_5PIN
Sc 00000000
AR /5288E946
Op 0 0 0
T0 0 2000 600 600 0 120 N V 21 N "J2"
T1 0 1000 600 600 0 120 N I 21 N "USB-OTG"
DS 1516 -1969 -1516 -1969 150 21
DS 1516 1575 -1516 1575 150 21
DS 1516 1575 1516 -1969 150 21
DS -1516 1575 -1516 -1969 150 21
DC -867 -492 -690 -492 150 21
DC 865 -492 1042 -472 150 21
$PAD
Sh "1" R 197 906 0 0 0
Dr 0 0 0
At SMD N 00888000
Ne 4 "VCC"
Po -630 -1516
$EndPAD
$PAD
Sh "2" R 197 906 0 0 0
Dr 0 0 0
At SMD N 00888000
Ne 1 "/USBDM"
Po -315 -1516
$EndPAD
$PAD
Sh "3" R 197 906 0 0 0
Dr 0 0 0
At SMD N 00888000
Ne 2 "/USBDP"
Po 0 -1516
$EndPAD
$PAD
Sh "4" R 197 906 0 0 0
Dr 0 0 0
At SMD N 00888000
Ne 0 ""
Po 315 -1516
$EndPAD
$PAD
Sh "5" R 197 906 0 0 0
Dr 0 0 0
At SMD N 00888000
Ne 3 "GND"
Po 630 -1516
$EndPAD
$PAD
Sh "5" R 787 984 0 0 0
Dr 0 0 0
At SMD N 00888000
Ne 3 "GND"
Po -1752 -1476
$EndPAD
$PAD
Sh "5" R 787 984 0 0 0
Dr 0 0 0
At SMD N 00888000
Ne 3 "GND"
Po 1752 -1476
$EndPAD
$PAD
Sh "5" R 787 984 0 0 0
Dr 0 0 0
At SMD N 00888000
Ne 3 "GND"
Po -1713 689
$EndPAD
$PAD
Sh "5" R 787 984 0 0 0
Dr 0 0 0
At SMD N 00888000
Ne 3 "GND"
Po 1752 689
$EndPAD
$PAD
Sh "~" C 394 394 0 0 0
Dr 197 0 0
At STD N 0000FFFF
Ne 0 ""
Po -866 -492
$EndPAD
$PAD
Sh "~" C 394 394 0 0 0
Dr 197 0 0
At STD N 0000FFFF
Ne 0 ""
Po 864 -492
$EndPAD
$EndMODULE  MINIUSB_5PIN
$EndLIBRARY
