EESchema Schematic File Version 2
LIBS:power
LIBS:device
LIBS:transistors
LIBS:conn
LIBS:linear
LIBS:regul
LIBS:74xx
LIBS:cmos4000
LIBS:adc-dac
LIBS:memory
LIBS:xilinx
LIBS:special
LIBS:microcontrollers
LIBS:dsp
LIBS:microchip
LIBS:analog_switches
LIBS:motorola
LIBS:texas
LIBS:intel
LIBS:audio
LIBS:interface
LIBS:digital-audio
LIBS:philips
LIBS:display
LIBS:cypress
LIBS:siliconi
LIBS:opto
LIBS:atmel
LIBS:contrib
LIBS:valves
LIBS:stm32
LIBS:comm
LIBS:project-cache
EELAYER 24 0
EELAYER END
$Descr A4 11693 8268
encoding utf-8
Sheet 8 10
Title "Charger"
Date "27 nov 2013"
Rev "1"
Comp "Illumium.Org"
Comment1 ""
Comment2 "Kayo"
Comment3 ""
Comment4 ""
$EndDescr
Text Label 7900 2800 0    60   ~ 0
BOOT_1
Text Label 7900 2400 0    60   ~ 0
OSC32_OUT
Text Label 7900 2300 0    60   ~ 0
OSC32_IN
$Comp
L GND #PWR020
U 1 1 53661077
P 3300 5900
F 0 "#PWR020" H 3300 5900 30  0001 C CNN
F 1 "GND" H 3300 5830 30  0001 C CNN
F 2 "" H 3300 5900 60  0001 C CNN
F 3 "" H 3300 5900 60  0001 C CNN
	1    3300 5900
	1    0    0    -1  
$EndComp
$Comp
L C C804
U 1 1 5366107D
P 3700 5500
F 0 "C804" H 3750 5600 50  0000 L CNN
F 1 "10p" H 3750 5400 50  0000 L CNN
F 2 "SM0603_Capa" H 3700 5500 60  0001 C CNN
F 3 "" H 3700 5500 60  0001 C CNN
	1    3700 5500
	1    0    0    -1  
$EndComp
$Comp
L CRYSTAL X802
U 1 1 53661083
P 3300 5200
F 0 "X802" H 3300 5350 60  0000 C CNN
F 1 "32768Hz" H 3300 5050 60  0000 C CNN
F 2 "QMONTRE" H 3300 5200 60  0001 C CNN
F 3 "" H 3300 5200 60  0001 C CNN
	1    3300 5200
	-1   0    0    -1  
$EndComp
$Comp
L C C803
U 1 1 53661089
P 2900 5500
F 0 "C803" H 2950 5600 50  0000 L CNN
F 1 "10p" H 2950 5400 50  0000 L CNN
F 2 "SM0603_Capa" H 2900 5500 60  0001 C CNN
F 3 "" H 2900 5500 60  0001 C CNN
	1    2900 5500
	-1   0    0    -1  
$EndComp
Text Label 4100 2900 2    60   ~ 0
BOOT_0
Text Label 4100 2700 2    60   ~ 0
OSC_OUT
Text Label 4100 2600 2    60   ~ 0
OSC_IN
$Comp
L GND #PWR021
U 1 1 53661097
P 1550 5900
F 0 "#PWR021" H 1550 5900 30  0001 C CNN
F 1 "GND" H 1550 5830 30  0001 C CNN
F 2 "" H 1550 5900 60  0001 C CNN
F 3 "" H 1550 5900 60  0001 C CNN
	1    1550 5900
	1    0    0    -1  
$EndComp
$Comp
L C C801
U 1 1 5366109D
P 1000 5500
F 0 "C801" H 1050 5600 50  0000 L CNN
F 1 "27p" H 1050 5400 50  0000 L CNN
F 2 "SM0603_Capa" H 1000 5500 60  0001 C CNN
F 3 "" H 1000 5500 60  0001 C CNN
	1    1000 5500
	-1   0    0    -1  
$EndComp
$Comp
L R R801
U 1 1 536610A3
P 1550 5200
F 0 "R801" V 1630 5200 50  0000 C CNN
F 1 "1M" V 1550 5200 50  0000 C CNN
F 2 "SM0603" H 1550 5200 60  0001 C CNN
F 3 "" H 1550 5200 60  0001 C CNN
	1    1550 5200
	0    -1   -1   0   
$EndComp
$Comp
L C C802
U 1 1 536610A9
P 2100 5500
F 0 "C802" H 2150 5600 50  0000 L CNN
F 1 "27p" H 2150 5400 50  0000 L CNN
F 2 "SM0603_Capa" H 2100 5500 60  0001 C CNN
F 3 "" H 2100 5500 60  0001 C CNN
	1    2100 5500
	1    0    0    -1  
$EndComp
$Comp
L CRYSTAL X801
U 1 1 536610AF
P 1550 5500
F 0 "X801" H 1550 5650 60  0000 C CNN
F 1 "8MHz" H 1550 5350 60  0000 C CNN
F 2 "HC-49V" H 1550 5500 60  0001 C CNN
F 3 "" H 1550 5500 60  0001 C CNN
	1    1550 5500
	-1   0    0    1   
$EndComp
$Comp
L GND #PWR022
U 1 1 536610BB
P 4600 5800
F 0 "#PWR022" H 4600 5800 30  0001 C CNN
F 1 "GND" H 4600 5730 30  0001 C CNN
F 2 "" H 4600 5800 60  0001 C CNN
F 3 "" H 4600 5800 60  0001 C CNN
	1    4600 5800
	1    0    0    -1  
$EndComp
$Comp
L R R802
U 1 1 536610C1
P 4600 4850
F 0 "R802" V 4680 4850 50  0000 C CNN
F 1 "10K" V 4600 4850 50  0000 C CNN
F 2 "SM0603" H 4600 4850 60  0001 C CNN
F 3 "" H 4600 4850 60  0001 C CNN
	1    4600 4850
	-1   0    0    1   
$EndComp
$Comp
L C C805
U 1 1 536610C7
P 4600 5500
F 0 "C805" H 4650 5600 50  0000 L CNN
F 1 "100n" H 4650 5400 50  0000 L CNN
F 2 "SM0603_Capa" H 4600 5500 60  0001 C CNN
F 3 "" H 4600 5500 60  0001 C CNN
	1    4600 5500
	-1   0    0    -1  
$EndComp
$Comp
L VDD #PWR023
U 1 1 536610CD
P 4600 4500
F 0 "#PWR023" H 4600 4600 30  0001 C CNN
F 1 "VDD" H 4600 4610 30  0000 C CNN
F 2 "" H 4600 4500 60  0001 C CNN
F 3 "" H 4600 4500 60  0001 C CNN
	1    4600 4500
	1    0    0    -1  
$EndComp
$Comp
L VDD #PWR024
U 1 1 536610D3
P 6100 5100
F 0 "#PWR024" H 6100 5200 30  0001 C CNN
F 1 "VDD" H 6100 5210 30  0000 C CNN
F 2 "" H 6100 5100 60  0001 C CNN
F 3 "" H 6100 5100 60  0001 C CNN
	1    6100 5100
	1    0    0    -1  
$EndComp
$Comp
L GND #PWR025
U 1 1 536610D9
P 6100 5900
F 0 "#PWR025" H 6100 5900 30  0001 C CNN
F 1 "GND" H 6100 5830 30  0001 C CNN
F 2 "" H 6100 5900 60  0001 C CNN
F 3 "" H 6100 5900 60  0001 C CNN
	1    6100 5900
	1    0    0    -1  
$EndComp
$Comp
L C C806
U 1 1 536610DF
P 5500 5500
F 0 "C806" H 5550 5600 50  0000 L CNN
F 1 "100n" H 5550 5400 50  0000 L CNN
F 2 "SM0603_Capa" H 5500 5500 60  0001 C CNN
F 3 "" H 5500 5500 60  0001 C CNN
	1    5500 5500
	-1   0    0    -1  
$EndComp
$Comp
L C C807
U 1 1 536610E5
P 5800 5500
F 0 "C807" H 5850 5600 50  0000 L CNN
F 1 "100n" H 5850 5400 50  0000 L CNN
F 2 "SM0603_Capa" H 5800 5500 60  0001 C CNN
F 3 "" H 5800 5500 60  0001 C CNN
	1    5800 5500
	-1   0    0    -1  
$EndComp
$Comp
L C C808
U 1 1 536610EB
P 6100 5500
F 0 "C808" H 6150 5600 50  0000 L CNN
F 1 "100n" H 6150 5400 50  0000 L CNN
F 2 "SM0603_Capa" H 6100 5500 60  0001 C CNN
F 3 "" H 6100 5500 60  0001 C CNN
	1    6100 5500
	-1   0    0    -1  
$EndComp
$Comp
L C C809
U 1 1 536610F1
P 6400 5500
F 0 "C809" H 6450 5600 50  0000 L CNN
F 1 "100n" H 6450 5400 50  0000 L CNN
F 2 "SM0603_Capa" H 6400 5500 60  0001 C CNN
F 3 "" H 6400 5500 60  0001 C CNN
	1    6400 5500
	-1   0    0    -1  
$EndComp
$Comp
L GND #PWR026
U 1 1 536610F7
P 4100 4200
F 0 "#PWR026" H 4100 4200 30  0001 C CNN
F 1 "GND" H 4100 4130 30  0001 C CNN
F 2 "" H 4100 4200 60  0001 C CNN
F 3 "" H 4100 4200 60  0001 C CNN
	1    4100 4200
	1    0    0    -1  
$EndComp
Text Label 3700 5200 1    60   ~ 0
OSC32_IN
Text Label 2900 5200 1    60   ~ 0
OSC32_OUT
$Comp
L STM32F103RBT6 D801
U 1 1 536610FF
P 6000 2500
F 0 "D801" H 6000 4300 60  0000 C CNN
F 1 "STM32F103RBT6" H 6000 700 60  0000 C CNN
F 2 "VQFP64" H 6000 2500 60  0001 C CNN
F 3 "" H 6000 2500 60  0000 C CNN
	1    6000 2500
	1    0    0    -1  
$EndComp
Text Label 1000 5200 1    60   ~ 0
OSC_IN
Text Label 2100 5200 1    60   ~ 0
OSC_OUT
$Comp
L VDD #PWR027
U 1 1 53661109
P 3800 3400
F 0 "#PWR027" H 3800 3500 30  0001 C CNN
F 1 "VDD" H 3800 3510 30  0000 C CNN
F 2 "" H 3800 3400 60  0000 C CNN
F 3 "" H 3800 3400 60  0000 C CNN
	1    3800 3400
	1    0    0    -1  
$EndComp
Wire Wire Line
	3800 3500 3800 3400
Connection ~ 4000 3900
Wire Wire Line
	4000 4100 4200 4100
Wire Wire Line
	4000 3100 4000 4100
Wire Wire Line
	6400 5200 6400 5300
Wire Wire Line
	7800 3000 8300 3000
Wire Wire Line
	7800 2900 8300 2900
Connection ~ 4000 3300
Wire Wire Line
	3800 3500 4200 3500
Wire Wire Line
	4000 3300 4200 3300
Connection ~ 4000 3500
Wire Wire Line
	4200 3100 4000 3100
Wire Wire Line
	4600 5200 4700 5200
Wire Wire Line
	7900 2300 7800 2300
Wire Wire Line
	3700 5200 3600 5200
Wire Wire Line
	3700 5200 3700 5300
Connection ~ 3300 5800
Wire Wire Line
	3300 5900 3300 5800
Wire Wire Line
	4200 2700 4100 2700
Wire Wire Line
	1150 5500 1150 5200
Wire Wire Line
	4200 2000 3700 2000
Wire Wire Line
	4200 2200 3700 2200
Wire Wire Line
	4200 2400 3700 2400
Wire Wire Line
	4200 2900 4100 2900
Wire Wire Line
	2100 5800 2100 5700
Wire Wire Line
	1000 5800 2100 5800
Wire Wire Line
	1000 5700 1000 5800
Connection ~ 1150 5200
Wire Wire Line
	1000 5200 1300 5200
Wire Wire Line
	1000 5300 1000 5200
Wire Wire Line
	1250 5500 1150 5500
Wire Wire Line
	4600 5700 4600 5800
Wire Wire Line
	5500 5200 6700 5200
Wire Wire Line
	4000 3900 4200 3900
Wire Wire Line
	6100 5700 6100 5900
Connection ~ 6100 5800
Wire Wire Line
	5800 5800 5800 5700
Wire Wire Line
	5500 5300 5500 5200
Wire Wire Line
	6100 5100 6100 5300
Connection ~ 4100 3400
Wire Wire Line
	4100 3200 4100 4200
Wire Wire Line
	4200 3200 4100 3200
Connection ~ 4100 3800
Wire Wire Line
	4100 4000 4200 4000
Wire Wire Line
	4100 3600 4200 3600
Wire Wire Line
	4200 3400 4100 3400
Wire Wire Line
	4100 3800 4200 3800
Connection ~ 4100 3600
Connection ~ 4100 4000
Wire Wire Line
	5800 5200 5800 5300
Connection ~ 6100 5200
Wire Wire Line
	6400 5800 6400 5700
Wire Wire Line
	5500 5800 6700 5800
Wire Wire Line
	5500 5700 5500 5800
Connection ~ 4000 3700
Wire Wire Line
	4000 3700 4200 3700
Wire Wire Line
	4600 5100 4600 5300
Connection ~ 4600 5200
Wire Wire Line
	4600 4600 4600 4500
Wire Wire Line
	1950 5500 1850 5500
Wire Wire Line
	1800 5200 2100 5200
Wire Wire Line
	2100 5200 2100 5300
Connection ~ 1950 5200
Wire Wire Line
	1550 5900 1550 5800
Connection ~ 1550 5800
Wire Wire Line
	4200 2300 3700 2300
Wire Wire Line
	4200 2100 3700 2100
Wire Wire Line
	1950 5200 1950 5500
Wire Wire Line
	4200 2600 4100 2600
Wire Wire Line
	2900 5800 2900 5700
Wire Wire Line
	2900 5800 3700 5800
Wire Wire Line
	3700 5800 3700 5700
Wire Wire Line
	2900 5200 2900 5300
Wire Wire Line
	2900 5200 3000 5200
Wire Wire Line
	7800 2400 7900 2400
Wire Wire Line
	7800 2800 7900 2800
Wire Wire Line
	4200 3000 3700 3000
Wire Wire Line
	7800 1800 8200 1800
Wire Wire Line
	4200 1900 3700 1900
$Comp
L GND #PWR028
U 1 1 53661C20
P 8000 6500
F 0 "#PWR028" H 8000 6500 30  0001 C CNN
F 1 "GND" H 8000 6430 30  0001 C CNN
F 2 "" H 8000 6500 60  0001 C CNN
F 3 "" H 8000 6500 60  0001 C CNN
	1    8000 6500
	1    0    0    -1  
$EndComp
$Comp
L CONN_3 K802
U 1 1 53661C26
P 7550 6300
F 0 "K802" V 7500 6300 50  0000 C CNN
F 1 "BOOT1" V 7600 6300 40  0000 C CNN
F 2 "GS3" H 7550 6300 60  0001 C CNN
F 3 "" H 7550 6300 60  0001 C CNN
	1    7550 6300
	-1   0    0    1   
$EndComp
$Comp
L VDD #PWR029
U 1 1 53661C2C
P 8000 6100
F 0 "#PWR029" H 8000 6200 30  0001 C CNN
F 1 "VDD" H 8000 6210 30  0000 C CNN
F 2 "" H 8000 6100 60  0001 C CNN
F 3 "" H 8000 6100 60  0001 C CNN
	1    8000 6100
	1    0    0    -1  
$EndComp
$Comp
L R R804
U 1 1 53661C32
P 8250 6300
F 0 "R804" V 8330 6300 50  0000 C CNN
F 1 "33K" V 8250 6300 50  0000 C CNN
F 2 "SM0603" H 8250 6300 60  0001 C CNN
F 3 "" H 8250 6300 60  0001 C CNN
	1    8250 6300
	0    -1   -1   0   
$EndComp
Text Label 8600 6200 1    60   ~ 0
BOOT_1
Text Label 8600 5400 1    60   ~ 0
BOOT_0
$Comp
L R R803
U 1 1 53661C3A
P 8250 5500
F 0 "R803" V 8330 5500 50  0000 C CNN
F 1 "33K" V 8250 5500 50  0000 C CNN
F 2 "SM0603" H 8250 5500 60  0001 C CNN
F 3 "" H 8250 5500 60  0001 C CNN
	1    8250 5500
	0    -1   -1   0   
$EndComp
$Comp
L VDD #PWR030
U 1 1 53661C40
P 8000 5300
F 0 "#PWR030" H 8000 5400 30  0001 C CNN
F 1 "VDD" H 8000 5410 30  0000 C CNN
F 2 "" H 8000 5300 60  0001 C CNN
F 3 "" H 8000 5300 60  0001 C CNN
	1    8000 5300
	1    0    0    -1  
$EndComp
$Comp
L CONN_3 K801
U 1 1 53661C46
P 7550 5500
F 0 "K801" V 7500 5500 50  0000 C CNN
F 1 "BOOT0" V 7600 5500 40  0000 C CNN
F 2 "GS3" H 7550 5500 60  0001 C CNN
F 3 "" H 7550 5500 60  0001 C CNN
	1    7550 5500
	-1   0    0    1   
$EndComp
$Comp
L GND #PWR031
U 1 1 53661C4C
P 8000 5700
F 0 "#PWR031" H 8000 5700 30  0001 C CNN
F 1 "GND" H 8000 5630 30  0001 C CNN
F 2 "" H 8000 5700 60  0001 C CNN
F 3 "" H 8000 5700 60  0001 C CNN
	1    8000 5700
	1    0    0    -1  
$EndComp
Wire Wire Line
	8000 6300 7900 6300
Wire Wire Line
	8000 6400 8000 6500
Wire Wire Line
	7900 6400 8000 6400
Wire Wire Line
	8000 6200 7900 6200
Wire Wire Line
	8000 6100 8000 6200
Wire Wire Line
	8600 6300 8500 6300
Wire Wire Line
	8600 6200 8600 6300
Wire Wire Line
	8600 5500 8600 5400
Wire Wire Line
	8500 5500 8600 5500
Wire Wire Line
	8000 5400 8000 5300
Wire Wire Line
	7900 5400 8000 5400
Wire Wire Line
	8000 5600 7900 5600
Wire Wire Line
	8000 5700 8000 5600
Wire Wire Line
	8000 5500 7900 5500
Text GLabel 8200 1800 2    60   Input ~ 0
USB_PWR
Text GLabel 4700 5200 2    60   Input ~ 0
RESET
Text GLabel 3700 3000 0    60   Input ~ 0
RESET
Text GLabel 3700 2400 0    60   Input ~ 0
JTAG_TDI
Text GLabel 3700 2300 0    60   Input ~ 0
JTAG_TCK
Text GLabel 3700 2200 0    60   Input ~ 0
JTAG_TMS
Text GLabel 3700 2100 0    60   Input ~ 0
USB_DP
Text GLabel 3700 2000 0    60   Input ~ 0
USB_DM
Text GLabel 3700 1900 0    60   Input ~ 0
~USB_CON
Text GLabel 8300 2900 2    60   Input ~ 0
JTAG_TDO
Text GLabel 8300 3000 2    60   Input ~ 0
JTAG_TRST
$Comp
L C C810
U 1 1 5365CDBD
P 6700 5500
F 0 "C810" H 6750 5600 50  0000 L CNN
F 1 "100n" H 6750 5400 50  0000 L CNN
F 2 "SM0603_Capa" H 6700 5500 60  0001 C CNN
F 3 "" H 6700 5500 60  0001 C CNN
	1    6700 5500
	-1   0    0    -1  
$EndComp
Wire Wire Line
	6700 5200 6700 5300
Connection ~ 6400 5200
Wire Wire Line
	6700 5800 6700 5700
Connection ~ 6400 5800
Connection ~ 5800 5200
Connection ~ 5800 5800
Wire Wire Line
	7800 4000 8900 4000
Wire Wire Line
	7800 3900 8800 3900
Wire Wire Line
	7800 3800 8700 3800
Wire Wire Line
	7800 3700 8600 3700
Wire Wire Line
	7800 3600 8500 3600
Wire Wire Line
	7800 2600 9000 2600
Wire Wire Line
	7800 2700 8900 2700
Text GLabel 9600 2600 2    60   Input ~ 0
L7S_A
Text GLabel 9600 2800 2    60   Input ~ 0
L7S_B
Text GLabel 9600 3700 2    60   Input ~ 0
L7S_C
Text GLabel 9600 3900 2    60   Input ~ 0
L7S_D
Text GLabel 9600 3500 2    60   Input ~ 0
L7S_E
Text GLabel 9600 3300 2    60   Input ~ 0
L7S_F
Text GLabel 9600 3100 2    60   Input ~ 0
L7S_G
Wire Wire Line
	7800 3400 7900 3400
Wire Wire Line
	7800 3300 7900 3300
Wire Wire Line
	7800 3200 7900 3200
Wire Wire Line
	7800 3100 7900 3100
Text HLabel 7900 3400 2    60   Input ~ 0
SEG_1
Text HLabel 7900 3300 2    60   Input ~ 0
SEG_2
Text HLabel 7900 3200 2    60   Input ~ 0
SEG_3
Text HLabel 7900 3100 2    60   Input ~ 0
SEG_4
$Comp
L R R805
U 1 1 53754C31
P 9250 2600
F 0 "R805" V 9330 2600 50  0000 C CNN
F 1 "220" V 9250 2600 50  0000 C CNN
F 2 "SM0603" H 9250 2600 60  0001 C CNN
F 3 "" H 9250 2600 60  0001 C CNN
	1    9250 2600
	0    -1   -1   0   
$EndComp
$Comp
L R R806
U 1 1 53754C3B
P 9250 2800
F 0 "R806" V 9330 2800 50  0000 C CNN
F 1 "220" V 9250 2800 50  0000 C CNN
F 2 "SM0603" H 9250 2800 60  0001 C CNN
F 3 "" H 9250 2800 60  0001 C CNN
	1    9250 2800
	0    -1   -1   0   
$EndComp
Wire Wire Line
	8900 2700 8900 2800
Wire Wire Line
	8900 2800 9000 2800
Wire Wire Line
	9500 2600 9600 2600
Wire Wire Line
	9500 2800 9600 2800
$Comp
L R R808
U 1 1 53755472
P 9250 3300
F 0 "R808" V 9330 3300 50  0000 C CNN
F 1 "220" V 9250 3300 50  0000 C CNN
F 2 "SM0603" H 9250 3300 60  0001 C CNN
F 3 "" H 9250 3300 60  0001 C CNN
	1    9250 3300
	0    -1   -1   0   
$EndComp
$Comp
L R R812
U 1 1 53755478
P 9250 4100
F 0 "R812" V 9330 4100 50  0000 C CNN
F 1 "220" V 9250 4100 50  0000 C CNN
F 2 "SM0603" H 9250 4100 60  0001 C CNN
F 3 "" H 9250 4100 60  0001 C CNN
	1    9250 4100
	0    -1   -1   0   
$EndComp
$Comp
L R R811
U 1 1 5375547E
P 9250 3900
F 0 "R811" V 9330 3900 50  0000 C CNN
F 1 "220" V 9250 3900 50  0000 C CNN
F 2 "SM0603" H 9250 3900 60  0001 C CNN
F 3 "" H 9250 3900 60  0001 C CNN
	1    9250 3900
	0    -1   -1   0   
$EndComp
$Comp
L R R810
U 1 1 53755484
P 9250 3700
F 0 "R810" V 9330 3700 50  0000 C CNN
F 1 "220" V 9250 3700 50  0000 C CNN
F 2 "SM0603" H 9250 3700 60  0001 C CNN
F 3 "" H 9250 3700 60  0001 C CNN
	1    9250 3700
	0    -1   -1   0   
$EndComp
$Comp
L R R809
U 1 1 5375548A
P 9250 3500
F 0 "R809" V 9330 3500 50  0000 C CNN
F 1 "220" V 9250 3500 50  0000 C CNN
F 2 "SM0603" H 9250 3500 60  0001 C CNN
F 3 "" H 9250 3500 60  0001 C CNN
	1    9250 3500
	0    -1   -1   0   
$EndComp
$Comp
L R R807
U 1 1 53755490
P 9250 3100
F 0 "R807" V 9330 3100 50  0000 C CNN
F 1 "220" V 9250 3100 50  0000 C CNN
F 2 "SM0603" H 9250 3100 60  0001 C CNN
F 3 "" H 9250 3100 60  0001 C CNN
	1    9250 3100
	0    -1   -1   0   
$EndComp
Text GLabel 9600 4100 2    60   Input ~ 0
L7S_P
Wire Wire Line
	9000 4100 7800 4100
Wire Wire Line
	9500 4100 9600 4100
Wire Wire Line
	8900 4000 8900 3900
Wire Wire Line
	8900 3900 9000 3900
Wire Wire Line
	8800 3900 8800 3700
Wire Wire Line
	8800 3700 9000 3700
Wire Wire Line
	8700 3800 8700 3500
Wire Wire Line
	8700 3500 9000 3500
Wire Wire Line
	8600 3700 8600 3300
Wire Wire Line
	8600 3300 9000 3300
Wire Wire Line
	8500 3600 8500 3100
Wire Wire Line
	8500 3100 9000 3100
Wire Wire Line
	9500 3100 9600 3100
Wire Wire Line
	9500 3300 9600 3300
Wire Wire Line
	9500 3500 9600 3500
Wire Wire Line
	9500 3700 9600 3700
Wire Wire Line
	9500 3900 9600 3900
Wire Wire Line
	4200 1700 3700 1700
Wire Wire Line
	4200 1800 3700 1800
Text HLabel 3700 1700 0    60   Input ~ 0
PWM_CTL1
Text HLabel 3700 1800 0    60   Input ~ 0
PWM_CTL2
Wire Wire Line
	4200 900  3700 900 
Wire Wire Line
	4200 1000 3700 1000
Wire Wire Line
	4200 1100 3700 1100
Wire Wire Line
	4200 1200 3700 1200
Text HLabel 3700 900  0    60   Input ~ 0
SENSE_U1
Text HLabel 3700 1000 0    60   Input ~ 0
SENSE_U2
Text HLabel 3700 1100 0    60   Input ~ 0
SENSE_I1
Text HLabel 3700 1200 0    60   Input ~ 0
SENSE_I2
$EndSCHEMATC
