EESchema Schematic File Version 2
LIBS:power
LIBS:device
LIBS:transistors
LIBS:conn
LIBS:linear
LIBS:regul
LIBS:74xx
LIBS:cmos4000
LIBS:adc-dac
LIBS:memory
LIBS:xilinx
LIBS:special
LIBS:microcontrollers
LIBS:dsp
LIBS:microchip
LIBS:analog_switches
LIBS:motorola
LIBS:texas
LIBS:intel
LIBS:audio
LIBS:interface
LIBS:digital-audio
LIBS:philips
LIBS:display
LIBS:cypress
LIBS:siliconi
LIBS:opto
LIBS:atmel
LIBS:contrib
LIBS:valves
LIBS:stm32
LIBS:comm
LIBS:project-cache
EELAYER 24 0
EELAYER END
$Descr A4 11693 8268
encoding utf-8
Sheet 1 10
Title "Charger"
Date "27 nov 2013"
Rev "1"
Comp "Illumium.Org"
Comment1 ""
Comment2 "Kayo"
Comment3 ""
Comment4 ""
$EndDescr
$Comp
L GND #PWR01
U 1 1 52836DE4
P 6550 6600
F 0 "#PWR01" H 6550 6600 30  0001 C CNN
F 1 "GND" H 6550 6530 30  0001 C CNN
F 2 "" H 6550 6600 60  0001 C CNN
F 3 "" H 6550 6600 60  0001 C CNN
	1    6550 6600
	1    0    0    -1  
$EndComp
$Comp
L CP1 C104
U 1 1 52836D8A
P 6700 6200
F 0 "C104" H 6750 6300 50  0000 L CNN
F 1 "10u" H 6750 6100 50  0000 L CNN
F 2 "C1V7" H 6700 6200 60  0001 C CNN
F 3 "" H 6700 6200 60  0001 C CNN
	1    6700 6200
	1    0    0    -1  
$EndComp
$Comp
L C C103
U 1 1 52836D6F
P 6400 6200
F 0 "C103" H 6450 6300 50  0000 L CNN
F 1 "100n" H 6450 6100 50  0000 L CNN
F 2 "SM0603_Capa" H 6400 6200 60  0001 C CNN
F 3 "" H 6400 6200 60  0001 C CNN
	1    6400 6200
	1    0    0    -1  
$EndComp
$Comp
L VDD #PWR02
U 1 1 52836D60
P 6200 5800
F 0 "#PWR02" H 6200 5900 30  0001 C CNN
F 1 "VDD" H 6200 5910 30  0000 C CNN
F 2 "" H 6200 5800 60  0001 C CNN
F 3 "" H 6200 5800 60  0001 C CNN
	1    6200 5800
	1    0    0    -1  
$EndComp
$Comp
L GND #PWR03
U 1 1 52836CE8
P 4650 6600
F 0 "#PWR03" H 4650 6600 30  0001 C CNN
F 1 "GND" H 4650 6530 30  0001 C CNN
F 2 "" H 4650 6600 60  0001 C CNN
F 3 "" H 4650 6600 60  0001 C CNN
	1    4650 6600
	1    0    0    -1  
$EndComp
$Comp
L R R102
U 1 1 52836CBA
P 5850 6500
F 0 "R102" V 5930 6500 50  0000 C CNN
F 1 "240" V 5850 6500 50  0000 C CNN
F 2 "SM0603" H 5850 6500 60  0001 C CNN
F 3 "" H 5850 6500 60  0001 C CNN
	1    5850 6500
	0    1    -1   0   
$EndComp
$Comp
L R R101
U 1 1 52836CA8
P 5150 6500
F 0 "R101" V 5230 6500 50  0000 C CNN
F 1 "390" V 5150 6500 50  0000 C CNN
F 2 "SM0603" H 5150 6500 60  0001 C CNN
F 3 "" H 5150 6500 60  0001 C CNN
	1    5150 6500
	0    -1   -1   0   
$EndComp
$Comp
L C C101
U 1 1 52836C66
P 4500 6200
F 0 "C101" H 4550 6300 50  0000 L CNN
F 1 "100n" H 4550 6100 50  0000 L CNN
F 2 "SM0603_Capa" H 4500 6200 60  0001 C CNN
F 3 "" H 4500 6200 60  0001 C CNN
	1    4500 6200
	-1   0    0    -1  
$EndComp
$Comp
L CP1 C102
U 1 1 52836C5A
P 4800 6200
F 0 "C102" H 4850 6300 50  0000 L CNN
F 1 "10u" H 4850 6100 50  0000 L CNN
F 2 "C1V7" H 4800 6200 60  0001 C CNN
F 3 "" H 4800 6200 60  0001 C CNN
	1    4800 6200
	1    0    0    -1  
$EndComp
$Comp
L LM317_SOT223 U101
U 1 1 52836BEB
P 5500 6050
F 0 "U101" H 5500 6350 60  0000 C CNN
F 1 "LM1117" H 5550 5800 60  0000 L CNN
F 2 "SOT223" H 5500 6050 60  0001 C CNN
F 3 "" H 5500 6050 60  0001 C CNN
	1    5500 6050
	1    0    0    -1  
$EndComp
Wire Wire Line
	6400 5900 6400 6000
Wire Wire Line
	6700 6500 6700 6400
Wire Wire Line
	6400 6500 6700 6500
Wire Wire Line
	6400 6400 6400 6500
Wire Wire Line
	5400 6500 5600 6500
Wire Wire Line
	4800 6500 4800 6400
Wire Wire Line
	4500 6500 4500 6400
Wire Wire Line
	5500 6400 5500 6500
Connection ~ 4800 5900
Wire Wire Line
	4800 5900 4800 6000
Wire Wire Line
	4500 5800 4500 6000
Connection ~ 5500 6500
Wire Wire Line
	4650 6600 4650 6500
Connection ~ 4650 6500
Wire Wire Line
	6200 6500 6100 6500
Wire Wire Line
	4500 6500 4900 6500
Connection ~ 4800 6500
Wire Wire Line
	6200 5800 6200 6500
Connection ~ 6200 5900
Wire Wire Line
	6550 6600 6550 6500
Connection ~ 6550 6500
Wire Wire Line
	5900 5900 6700 5900
Wire Wire Line
	6700 5900 6700 6000
Connection ~ 6400 5900
Wire Wire Line
	4400 5900 5100 5900
$Sheet
S 6500 1200 1100 600 
U 53667B76
F0 "USBDevice" 50
F1 "usbdevice.sch" 50
$EndSheet
$Sheet
S 6500 2200 1100 600 
U 5366B7D8
F0 "Debug" 50
F1 "debug.sch" 50
$EndSheet
$Sheet
S 3400 1200 1100 600 
U 537443FD
F0 "L7SDigit1" 50
F1 "led7seg.sch" 50
F2 "SEG" I R 4500 1500 60 
$EndSheet
$Comp
L VCC #PWR04
U 1 1 5374930C
P 4500 5800
F 0 "#PWR04" H 4500 5900 30  0001 C CNN
F 1 "VCC" H 4500 5900 30  0000 C CNN
F 2 "" H 4500 5800 60  0000 C CNN
F 3 "" H 4500 5800 60  0000 C CNN
	1    4500 5800
	1    0    0    -1  
$EndComp
Connection ~ 4500 5900
$Sheet
S 3400 2200 1100 600 
U 5375BA25
F0 "L7SDigit2" 50
F1 "led7seg.sch" 50
F2 "SEG" I R 4500 2500 60 
$EndSheet
$Sheet
S 3400 3200 1100 600 
U 5375BA47
F0 "L7SDigit3" 50
F1 "led7seg.sch" 50
F2 "SEG" I R 4500 3500 60 
$EndSheet
$Sheet
S 3400 4200 1100 600 
U 5375B9EC
F0 "L7SDigit4" 50
F1 "led7seg.sch" 50
F2 "SEG" I R 4500 4500 60 
$EndSheet
$Sheet
S 4900 1200 1200 3600
U 53660BC8
F0 "Processor" 50
F1 "processor.sch" 50
F2 "SEG_1" I L 4900 1500 60 
F3 "SEG_2" I L 4900 2500 60 
F4 "SEG_3" I L 4900 3500 60 
F5 "SEG_4" I L 4900 4500 60 
F6 "PWM_CTL1" I R 6100 3600 60 
F7 "PWM_CTL2" I R 6100 4600 60 
F8 "SENSE_U1" I R 6100 3400 60 
F9 "SENSE_U2" I R 6100 4400 60 
F10 "SENSE_I1" I R 6100 3500 60 
F11 "SENSE_I2" I R 6100 4500 60 
$EndSheet
Wire Wire Line
	4900 1500 4500 1500
Wire Wire Line
	4500 4500 4900 4500
Wire Wire Line
	4500 2500 4900 2500
Wire Wire Line
	4500 3500 4900 3500
$Sheet
S 6500 3200 1100 600 
U 5376380A
F0 "Charger1" 50
F1 "charger.sch" 50
F2 "SENSE_U" I L 6500 3400 60 
F3 "PWM_CTL" I L 6500 3600 60 
F4 "SENSE_I" I L 6500 3500 60 
$EndSheet
$Sheet
S 6500 4200 1100 600 
U 53763826
F0 "Charger2" 50
F1 "charger.sch" 50
F2 "SENSE_U" I L 6500 4400 60 
F3 "PWM_CTL" I L 6500 4600 60 
F4 "SENSE_I" I L 6500 4500 60 
$EndSheet
Wire Wire Line
	6500 3400 6100 3400
Wire Wire Line
	6100 3500 6500 3500
Wire Wire Line
	6500 3600 6100 3600
Wire Wire Line
	6100 4400 6500 4400
Wire Wire Line
	6500 4500 6100 4500
Wire Wire Line
	6100 4600 6500 4600
Text GLabel 4400 5900 0    60   Input ~ 0
USB_+5V
$Comp
L CONN_2 P101
U 1 1 5391BB78
P 8550 6000
F 0 "P101" V 8500 6000 40  0000 C CNN
F 1 "PWSW" V 8600 6000 40  0000 C CNN
F 2 "SIL-2" H 8550 6000 60  0001 C CNN
F 3 "" H 8550 6000 60  0000 C CNN
	1    8550 6000
	1    0    0    -1  
$EndComp
Text GLabel 8000 6100 0    60   Input ~ 0
CHG_PWR
Wire Wire Line
	8200 6100 8000 6100
$Comp
L VCC #PWR05
U 1 1 5391BD8C
P 8100 5800
F 0 "#PWR05" H 8100 5900 30  0001 C CNN
F 1 "VCC" H 8100 5900 30  0000 C CNN
F 2 "" H 8100 5800 60  0000 C CNN
F 3 "" H 8100 5800 60  0000 C CNN
	1    8100 5800
	1    0    0    -1  
$EndComp
Wire Wire Line
	8200 5900 8100 5900
Wire Wire Line
	8100 5900 8100 5800
$Comp
L CONN_2 P102
U 1 1 53A16779
P 9950 6000
F 0 "P102" V 9900 6000 40  0000 C CNN
F 1 "PWEX" V 10000 6000 40  0000 C CNN
F 2 "SIL-2" H 9950 6000 60  0001 C CNN
F 3 "" H 9950 6000 60  0000 C CNN
	1    9950 6000
	1    0    0    1   
$EndComp
Text GLabel 9400 5900 0    60   Input ~ 0
CHG_PWR
Wire Wire Line
	9600 5900 9400 5900
$Comp
L GND #PWR?
U 1 1 53A16CA2
P 9500 6200
F 0 "#PWR?" H 9500 6200 30  0001 C CNN
F 1 "GND" H 9500 6130 30  0001 C CNN
F 2 "" H 9500 6200 60  0000 C CNN
F 3 "" H 9500 6200 60  0000 C CNN
	1    9500 6200
	1    0    0    -1  
$EndComp
Wire Wire Line
	9600 6100 9500 6100
Wire Wire Line
	9500 6100 9500 6200
$EndSCHEMATC
