EESchema Schematic File Version 2
LIBS:power
LIBS:device
LIBS:transistors
LIBS:conn
LIBS:linear
LIBS:regul
LIBS:74xx
LIBS:cmos4000
LIBS:adc-dac
LIBS:memory
LIBS:xilinx
LIBS:special
LIBS:microcontrollers
LIBS:dsp
LIBS:microchip
LIBS:analog_switches
LIBS:motorola
LIBS:texas
LIBS:intel
LIBS:audio
LIBS:interface
LIBS:digital-audio
LIBS:philips
LIBS:display
LIBS:cypress
LIBS:siliconi
LIBS:opto
LIBS:atmel
LIBS:contrib
LIBS:valves
LIBS:stm32
LIBS:comm
LIBS:project-cache
EELAYER 24 0
EELAYER END
$Descr A4 11693 8268
encoding utf-8
Sheet 2 10
Title "Charger"
Date "27 nov 2013"
Rev "1"
Comp "Illumium.Org"
Comment1 ""
Comment2 "Kayo"
Comment3 ""
Comment4 ""
$EndDescr
$Comp
L VDD #PWR06
U 1 1 53667B7E
P 5400 4600
F 0 "#PWR06" H 5400 4700 30  0001 C CNN
F 1 "VDD" H 5400 4710 30  0000 C CNN
F 2 "" H 5400 4600 60  0001 C CNN
F 3 "" H 5400 4600 60  0001 C CNN
	1    5400 4600
	1    0    0    -1  
$EndComp
$Comp
L R R205
U 1 1 53667B84
P 6100 3950
F 0 "R205" V 6180 3950 50  0000 C CNN
F 1 "1K5" V 6100 3950 50  0000 C CNN
F 2 "SM0603" H 6100 3950 60  0001 C CNN
F 3 "" H 6100 3950 60  0001 C CNN
	1    6100 3950
	-1   0    0    -1  
$EndComp
$Comp
L GND #PWR07
U 1 1 53667B8A
P 5100 2950
F 0 "#PWR07" H 5100 2950 30  0001 C CNN
F 1 "GND" H 5100 2880 30  0001 C CNN
F 2 "" H 5100 2950 60  0001 C CNN
F 3 "" H 5100 2950 60  0001 C CNN
	1    5100 2950
	1    0    0    -1  
$EndComp
Text Label 5100 2400 0    60   ~ 0
USBD-
$Comp
L ESD_PROT U201
U 1 1 53667B91
P 5550 2850
F 0 "U201" H 5400 3100 60  0000 C CNN
F 1 "ESD_PROT" H 5550 2600 60  0000 C CNN
F 2 "sot143B" H 5550 2850 60  0001 C CNN
F 3 "" H 5550 2850 60  0001 C CNN
	1    5550 2850
	1    0    0    1   
$EndComp
$Comp
L USB-OTG J201
U 1 1 53667B97
P 6700 3050
F 0 "J201" H 6700 3350 60  0000 C CNN
F 1 "USB-OTG" H 6700 2750 60  0000 C CNN
F 2 "MINIUSB_5PIN" H 6700 3050 60  0001 C CNN
F 3 "" H 6700 3050 60  0001 C CNN
	1    6700 3050
	1    0    0    -1  
$EndComp
Text Label 5650 3300 0    60   ~ 0
USBD+
$Comp
L C C202
U 1 1 53667B9E
P 5300 4000
F 0 "C202" H 5350 4100 50  0000 L CNN
F 1 "47p" H 5350 3900 50  0000 L CNN
F 2 "SM0603_Capa" H 5300 4000 60  0001 C CNN
F 3 "" H 5300 4000 60  0001 C CNN
	1    5300 4000
	-1   0    0    -1  
$EndComp
$Comp
L GND #PWR08
U 1 1 53667BAA
P 5150 4400
F 0 "#PWR08" H 5150 4400 30  0001 C CNN
F 1 "GND" H 5150 4330 30  0001 C CNN
F 2 "" H 5150 4400 60  0001 C CNN
F 3 "" H 5150 4400 60  0001 C CNN
	1    5150 4400
	1    0    0    -1  
$EndComp
$Comp
L C C201
U 1 1 53667BB0
P 5000 4000
F 0 "C201" H 5050 4100 50  0000 L CNN
F 1 "47p" H 5050 3900 50  0000 L CNN
F 2 "SM0603_Capa" H 5000 4000 60  0001 C CNN
F 3 "" H 5000 4000 60  0001 C CNN
	1    5000 4000
	-1   0    0    -1  
$EndComp
$Comp
L R R204
U 1 1 53667BB6
P 5650 3600
F 0 "R204" V 5730 3600 50  0000 C CNN
F 1 "22" V 5650 3600 50  0000 C CNN
F 2 "SM0603" H 5650 3600 60  0001 C CNN
F 3 "" H 5650 3600 60  0001 C CNN
	1    5650 3600
	0    1    -1   0   
$EndComp
$Comp
L R R201
U 1 1 53667BBC
P 5000 3250
F 0 "R201" V 5080 3250 50  0000 C CNN
F 1 "22" V 5000 3250 50  0000 C CNN
F 2 "SM0603" H 5000 3250 60  0001 C CNN
F 3 "" H 5000 3250 60  0001 C CNN
	1    5000 3250
	-1   0    0    1   
$EndComp
$Comp
L NPN Q201
U 1 1 53667BC4
P 5700 5400
F 0 "Q201" H 5650 5500 50  0000 R CNN
F 1 "2N3904" H 5700 5250 50  0000 R CNN
F 2 "SOT23EBC" H 5700 5400 60  0001 C CNN
F 3 "" H 5700 5400 60  0000 C CNN
	1    5700 5400
	1    0    0    -1  
$EndComp
$Comp
L NPN Q202
U 1 1 53667BCA
P 5800 4800
F 0 "Q202" H 5750 4900 50  0000 R CNN
F 1 "2N3904" H 5800 4650 50  0000 R CNN
F 2 "SOT23EBC" H 5800 4800 60  0001 C CNN
F 3 "" H 5800 4800 60  0000 C CNN
	1    5800 4800
	0    -1   -1   0   
$EndComp
$Comp
L R R206
U 1 1 53667BD0
P 6300 4750
F 0 "R206" V 6380 4750 50  0000 C CNN
F 1 "10K" V 6300 4750 50  0000 C CNN
F 2 "SM0603" H 6300 4750 60  0001 C CNN
F 3 "" H 6300 4750 60  0001 C CNN
	1    6300 4750
	-1   0    0    -1  
$EndComp
$Comp
L R R207
U 1 1 53667BDC
P 6300 5450
F 0 "R207" V 6380 5450 50  0000 C CNN
F 1 "36K" V 6300 5450 50  0000 C CNN
F 2 "SM0603" H 6300 5450 60  0001 C CNN
F 3 "" H 6300 5450 60  0001 C CNN
	1    6300 5450
	-1   0    0    1   
$EndComp
$Comp
L GND #PWR09
U 1 1 53667BE2
P 6300 5900
F 0 "#PWR09" H 6300 5900 30  0001 C CNN
F 1 "GND" H 6300 5830 30  0001 C CNN
F 2 "" H 6300 5900 60  0001 C CNN
F 3 "" H 6300 5900 60  0001 C CNN
	1    6300 5900
	1    0    0    -1  
$EndComp
$Comp
L R R203
U 1 1 53667BE8
P 5400 5050
F 0 "R203" V 5480 5050 50  0000 C CNN
F 1 "47K" V 5400 5050 50  0000 C CNN
F 2 "SM0603" H 5400 5050 60  0001 C CNN
F 3 "" H 5400 5050 60  0001 C CNN
	1    5400 5050
	-1   0    0    1   
$EndComp
Wire Wire Line
	6100 3600 5900 3600
Wire Wire Line
	6300 2850 6500 2850
Wire Wire Line
	5000 2400 6100 2400
Wire Wire Line
	5000 3000 5000 2400
Wire Wire Line
	6700 3400 6700 3600
Connection ~ 6100 3300
Wire Wire Line
	6100 3050 6100 3700
Wire Wire Line
	6300 2850 6300 4500
Connection ~ 5300 3600
Wire Wire Line
	5300 4300 5300 4200
Wire Wire Line
	5000 4300 5300 4300
Wire Wire Line
	5000 4200 5000 4300
Wire Wire Line
	5150 4400 5150 4300
Connection ~ 5150 4300
Wire Wire Line
	5000 3500 5000 3800
Wire Wire Line
	4900 3700 5000 3700
Connection ~ 5000 3700
Wire Wire Line
	6400 3250 6500 3250
Wire Wire Line
	5550 2500 5550 2400
Connection ~ 5550 2400
Wire Wire Line
	5550 3300 5550 3200
Wire Wire Line
	4900 3600 5400 3600
Wire Wire Line
	5300 3800 5300 3600
Wire Wire Line
	6100 2400 6100 2950
Wire Wire Line
	5550 3300 6100 3300
Wire Wire Line
	5100 2850 5200 2850
Wire Wire Line
	5100 2950 5100 2850
Wire Wire Line
	6300 5700 6300 5900
Wire Wire Line
	5800 5800 6300 5800
Connection ~ 6300 5800
Wire Wire Line
	6300 5000 6300 5200
Wire Wire Line
	5800 5000 5800 5200
Wire Wire Line
	5800 5800 5800 5600
Wire Wire Line
	6400 3500 6400 3250
$Comp
L GND #PWR010
U 1 1 53667C15
P 6700 3600
F 0 "#PWR010" H 6700 3600 30  0001 C CNN
F 1 "GND" H 6700 3530 30  0001 C CNN
F 2 "" H 6700 3600 60  0001 C CNN
F 3 "" H 6700 3600 60  0001 C CNN
	1    6700 3600
	1    0    0    -1  
$EndComp
Wire Wire Line
	5400 4600 5400 4800
Wire Wire Line
	5300 5400 5500 5400
Wire Wire Line
	5400 5400 5400 5300
Wire Wire Line
	6700 3500 6400 3500
Connection ~ 6700 3500
Connection ~ 5400 5400
Wire Wire Line
	6000 4700 6100 4700
Wire Wire Line
	6100 4700 6100 4200
Wire Wire Line
	6300 4400 6800 4400
Wire Wire Line
	5600 4700 5400 4700
Connection ~ 5400 4700
$Comp
L R R202
U 1 1 53667C2C
P 5050 5400
F 0 "R202" V 5130 5400 50  0000 C CNN
F 1 "1K" V 5050 5400 50  0000 C CNN
F 2 "SM0603" H 5050 5400 60  0001 C CNN
F 3 "" H 5050 5400 60  0001 C CNN
	1    5050 5400
	0    1    -1   0   
$EndComp
Wire Wire Line
	4800 5400 4700 5400
$Comp
L VDD #PWR011
U 1 1 53667C33
P 6000 2750
F 0 "#PWR011" H 6000 2850 30  0001 C CNN
F 1 "VDD" H 6000 2860 30  0000 C CNN
F 2 "" H 6000 2750 60  0001 C CNN
F 3 "" H 6000 2750 60  0001 C CNN
	1    6000 2750
	1    0    0    -1  
$EndComp
Wire Wire Line
	5900 2850 6000 2850
Wire Wire Line
	6000 2850 6000 2750
Text GLabel 4900 3600 0    60   Input ~ 0
USB_DP
Text GLabel 4900 3700 0    60   Input ~ 0
USB_DM
Text GLabel 4700 5400 0    60   Input ~ 0
~USB_CON
$Comp
L R R209
U 1 1 53764EB0
P 6700 5450
F 0 "R209" V 6780 5450 50  0000 C CNN
F 1 "22K" V 6700 5450 50  0000 C CNN
F 2 "SM0603" H 6700 5450 60  0001 C CNN
F 3 "" H 6700 5450 60  0001 C CNN
	1    6700 5450
	-1   0    0    1   
$EndComp
Wire Wire Line
	6700 5000 6700 5200
Wire Wire Line
	6700 5100 6800 5100
$Comp
L R R208
U 1 1 53764EB8
P 6700 4750
F 0 "R208" V 6780 4750 50  0000 C CNN
F 1 "22K" V 6700 4750 50  0000 C CNN
F 2 "SM0603" H 6700 4750 60  0001 C CNN
F 3 "" H 6700 4750 60  0001 C CNN
	1    6700 4750
	-1   0    0    1   
$EndComp
Wire Wire Line
	6700 5700 6700 5900
Connection ~ 6700 5100
$Comp
L GND #PWR012
U 1 1 53764EC1
P 6700 5900
F 0 "#PWR012" H 6700 5900 30  0001 C CNN
F 1 "GND" H 6700 5830 30  0001 C CNN
F 2 "" H 6700 5900 60  0000 C CNN
F 3 "" H 6700 5900 60  0000 C CNN
	1    6700 5900
	1    0    0    -1  
$EndComp
Text GLabel 6800 5100 2    60   Input ~ 0
USB_PWR
Connection ~ 6100 3600
Wire Wire Line
	6700 4400 6700 4500
Wire Wire Line
	5800 5100 6300 5100
Connection ~ 6300 5100
Connection ~ 5800 5100
Text GLabel 6800 4400 2    60   Input ~ 0
USB_+5V
Connection ~ 6300 4400
Wire Wire Line
	6100 2950 6500 2950
Wire Wire Line
	6500 3050 6100 3050
Connection ~ 6700 4400
Text Notes 7550 5050 0    60   ~ 0
Resistive Divider to detect USB cable\n~ \nUSB 5V => 2.5V (logic one)
Text Notes 2350 5050 0    60   ~ 0
Three conditional USB Connection Logic\n~ \n\n1. USB Cable connected\n2. 2.7-3.3V appears on VDD\n3. Logic zero applied to ~USB_CON
Text Notes 2350 2900 0    60   ~ 0
ESD and current peak protection\n~ 
Text Notes 7600 4450 0    60   ~ 0
USB line power for non-self-powered devices
$EndSCHEMATC
